--------- beginning of main
09-14 17:12:16.718  5129  5556 W MDM     : StatsFactory - Interface [wlan0] => Type [Wifi]
09-14 17:12:16.718  5129  5556 W MDM     : StatsFactory - Interface [sit0] => Type [Vpn]
09-14 17:12:16.719  5129  5556 W MDM     : StatsFactory - Interface [dummy0] => Type [Mobile]
09-14 17:12:16.719  5129  5556 W MDM     : StatsFactory - Interface [usb0] => Type [Mobile]
09-14 17:12:16.719  5129  5556 W MDM     : StatsFactory - Interface [lo] => Type [LoopBack]
09-14 17:12:16.719  5129  5556 W MDM     : StatsFactory - Interface [p2p0] => Type [WifiLink]
09-14 17:12:16.754  5129  5556 W MDM     : StatsFactory - Interface [wlan0] => Type [Wifi]
09-14 17:12:16.754  5129  5556 W MDM     : StatsFactory - Interface [sit0] => Type [Vpn]
09-14 17:12:16.754  5129  5556 W MDM     : StatsFactory - Interface [dummy0] => Type [Mobile]
09-14 17:12:16.754  5129  5556 W MDM     : StatsFactory - Interface [usb0] => Type [Mobile]
09-14 17:12:16.755  5129  5556 W MDM     : StatsFactory - Interface [lo] => Type [LoopBack]
09-14 17:12:16.755  5129  5556 W MDM     : StatsFactory - Interface [p2p0] => Type [WifiLink]
--------- beginning of system
09-14 17:12:18.018  1482  4005 D WifiService: acquireWifiLockLocked: WifiLock{NlpWifiLock type=2 uid=10036}
09-14 17:12:20.969  4597  4597 I GeofencerStateMachine: sendNewTransitions called.
09-14 17:12:20.969  1482  4029 D WifiService: releaseWifiLockLocked: WifiLock{NlpWifiLock type=2 uid=10036}
09-14 17:12:20.970  1482  4833 V OSNPGlue_jni: Entering  : void onJavaLocationChanged(JNIEnv *, jobject, jboolean, jlong, jboolean, jlong, jboolean, jdouble, jboolean, jdouble, jboolean, jfloat, jboolean, jdouble, jboolean, jfloat, jboolean, jfloat, jboolean, jint)
09-14 17:12:20.971  1482  4837 E LocSvc_libulp: E/int ulp_brain_transition_all_providers(), no QUIPC/GNSS transition logic run due to both engines are OFF 
09-14 17:12:20.973  1482  3918 E LocSvc_LBSApiV02: E/virtual int lbs_core::LBSApiV02::injectCoarsePosition(const CoarsePositionInfo &):353]: Error : st = 3, ind.status = 0
09-14 17:12:20.974  1482  3988 E QMI_FW  : QCCI qmi_cci_xport_recv: txn not found. svc_id: 16
09-14 17:12:20.991  4597 26939 W ctxmgr  : [AclManager]No 2 for (accnt=account#1844836310#, com.google.android.gms(10036):UserLocationProducer, vrsn=13280000, 0, 3pPkg = null ,  3pMdlId = null ,  pid = 4597). Was: 2 for 1, account#1844836310#
09-14 17:12:20.998  4597 26146 I Places  : Converted 69 out of 69 WiFi scans
09-14 17:12:22.611  4543  4558 E ANDR-PERF-MPCTL: Invalid profile no. 0, total profiles 0 only
09-14 17:12:22.754  1482  4751 E ActivityManager: Sending non-protected broadcast com.motorola.motocare.INTENT_TRIGGER from system 3932:com.motorola.process.system/1000 pkg com.motorola.motgeofencesvc
09-14 17:12:22.754  1482  4751 E ActivityManager: java.lang.Throwable
09-14 17:12:22.754  1482  4751 E ActivityManager: 	at com.android.server.am.ActivityManagerService.broadcastIntentLocked(ActivityManagerService.java:18226)
09-14 17:12:22.754  1482  4751 E ActivityManager: 	at com.android.server.am.ActivityManagerService.broadcastIntent(ActivityManagerService.java:18826)
09-14 17:12:22.754  1482  4751 E ActivityManager: 	at android.app.ActivityManagerNative.onTransact(ActivityManagerNative.java:512)
09-14 17:12:22.754  1482  4751 E ActivityManager: 	at com.android.server.am.ActivityManagerService.onTransact(ActivityManagerService.java:2906)
09-14 17:12:22.754  1482  4751 E ActivityManager: 	at android.os.Binder.execTransact(Binder.java:565)
09-14 17:12:22.761  1482  1495 E ActivityManager: Sending non-protected broadcast com.motorola.motocare.INTENT_TRIGGER from system 3932:com.motorola.process.system/1000 pkg com.motorola.motgeofencesvc
09-14 17:12:22.761  1482  1495 E ActivityManager: java.lang.Throwable
09-14 17:12:22.761  1482  1495 E ActivityManager: 	at com.android.server.am.ActivityManagerService.broadcastIntentLocked(ActivityManagerService.java:18226)
09-14 17:12:22.761  1482  1495 E ActivityManager: 	at com.android.server.am.ActivityManagerService.broadcastIntent(ActivityManagerService.java:18826)
09-14 17:12:22.761  1482  1495 E ActivityManager: 	at android.app.ActivityManagerNative.onTransact(ActivityManagerNative.java:512)
09-14 17:12:22.761  1482  1495 E ActivityManager: 	at com.android.server.am.ActivityManagerService.onTransact(ActivityManagerService.java:2906)
09-14 17:12:22.761  1482  1495 E ActivityManager: 	at android.os.Binder.execTransact(Binder.java:565)
09-14 17:12:22.789   553   553 I SFPerfTracer:      triggers: (rate: 21:397) (compose: 0:233) (post: 0:0) (render: 0:220) (1400:751806 frames) (1401:754934)
09-14 17:12:22.790   553   553 D SFPerfTracer:        layers: (3:8) (StatusBar (0xb32c4c00): 11:7566) (com.android.systemui.ImageWallpaper (0xb32c3800): 6:3783)* (NavigationBar (0xb2f0d000): 6:3907) (DimLayerController/Stack=0 (0xb2f0f800): 1:1070)* (Sprite (0xb32c1000): 0:3)* (animation background stackId=1 (0xb32d6000): 0:6)* (com.smartdrive.technician/com.smartdrive.technician.activities.AdasCalibrationActivity (0xb2f0bc00): 1401:1817) (com.smartdrive.technician/com.smartdrive.technician.activities.AdasCalibrationActivity (0xb2f0e400): 0:22)- 
09-14 17:12:22.907  1482  4751 I WindowManager: Destroying surface Surface(name=com.smartdrive.technician/com.smartdrive.technician.activities.AdasCalibrationActivity) called by com.android.server.wm.WindowStateAnimator.destroySurface:2069 com.android.server.wm.WindowStateAnimator.destroySurfaceLocked:897 com.android.server.wm.WindowState.destroyOrSaveSurface:2121 com.android.server.wm.WindowManagerService.tryStartExitingAnimation:3085 com.android.server.wm.WindowManagerService.relayoutWindow:2965 com.android.server.wm.Session.relayout:224 android.view.IWindowSession$Stub.onTransact:286 com.android.server.wm.Session.onTransact:145 
09-14 17:12:22.913 26949 26954 I art     : Do partial code cache collection, code=50KB, data=59KB
09-14 17:12:22.915 26949 26954 I art     : After code cache collection, code=48KB, data=57KB
09-14 17:12:22.915 26949 26954 I art     : Increasing code cache capacity to 256KB
09-14 17:12:23.683   845   845 I MSM-irqbalance: Decided to move IRQ270 from CPU7 to CPU5
09-14 17:12:24.373   553   731 I SFPerfTracer:      triggers: (rate: 0:0) (0 sw vsyncs) (0 skipped) (1422:748977 vsyncs) (1424:753771)
09-14 17:12:24.390   553   733 I SFPerfTracer:      triggers: (rate: 0:0) (0 sw vsyncs) (0 skipped) (1817:750373 vsyncs) (1819:755223)
09-14 17:12:24.392   553   553 W SurfaceFlinger: couldn't log to binary event log: overflow.
09-14 17:12:31.710  5129  5556 W MDM     : StatsFactory - Interface [wlan0] => Type [Wifi]
09-14 17:12:31.710  5129  5556 W MDM     : StatsFactory - Interface [sit0] => Type [Vpn]
09-14 17:12:31.710  5129  5556 W MDM     : StatsFactory - Interface [dummy0] => Type [Mobile]
09-14 17:12:31.710  5129  5556 W MDM     : StatsFactory - Interface [usb0] => Type [Mobile]
09-14 17:12:31.710  5129  5556 W MDM     : StatsFactory - Interface [lo] => Type [LoopBack]
09-14 17:12:31.711  5129  5556 W MDM     : StatsFactory - Interface [p2p0] => Type [WifiLink]
09-14 17:12:31.743  5129  5556 W MDM     : StatsFactory - Interface [wlan0] => Type [Wifi]
09-14 17:12:31.743  5129  5556 W MDM     : StatsFactory - Interface [sit0] => Type [Vpn]
09-14 17:12:31.743  5129  5556 W MDM     : StatsFactory - Interface [dummy0] => Type [Mobile]
09-14 17:12:31.744  5129  5556 W MDM     : StatsFactory - Interface [usb0] => Type [Mobile]
09-14 17:12:31.744  5129  5556 W MDM     : StatsFactory - Interface [lo] => Type [LoopBack]
09-14 17:12:31.744  5129  5556 W MDM     : StatsFactory - Interface [p2p0] => Type [WifiLink]
09-14 17:12:36.738  4543  4558 E ANDR-PERF-MPCTL: Invalid profile no. 0, total profiles 0 only
09-14 17:12:36.846  1482  6638 I ActivityManager: START u0 {cmp=com.smartdrive.technician/.activities.AdasCalibrationActivity (has extras)} from uid 10159 on display 0
09-14 17:12:36.850   574   682 I ThermalEngine: Thermal-Server: Thermal received msg from  override
09-14 17:12:36.850   574   682 E ThermalEngine: override_notify: SS mode 1 override
09-14 17:12:36.851  4543 27420 I Thermal-Lib: Thermal-Lib-Client: Client request sent
09-14 17:12:36.861  1482  4029 E ActivityManager: Sending non-protected broadcast com.motorola.motocare.INTENT_TRIGGER from system 3932:com.motorola.process.system/1000 pkg com.motorola.motgeofencesvc
09-14 17:12:36.861  1482  4029 E ActivityManager: java.lang.Throwable
09-14 17:12:36.861  1482  4029 E ActivityManager: 	at com.android.server.am.ActivityManagerService.broadcastIntentLocked(ActivityManagerService.java:18226)
09-14 17:12:36.861  1482  4029 E ActivityManager: 	at com.android.server.am.ActivityManagerService.broadcastIntent(ActivityManagerService.java:18826)
09-14 17:12:36.861  1482  4029 E ActivityManager: 	at android.app.ActivityManagerNative.onTransact(ActivityManagerNative.java:512)
09-14 17:12:36.861  1482  4029 E ActivityManager: 	at com.android.server.am.ActivityManagerService.onTransact(ActivityManagerService.java:2906)
09-14 17:12:36.861  1482  4029 E ActivityManager: 	at android.os.Binder.execTransact(Binder.java:565)
09-14 17:12:36.873  1482  4023 E ActivityManager: Sending non-protected broadcast com.motorola.motocare.INTENT_TRIGGER from system 3932:com.motorola.process.system/1000 pkg com.motorola.motgeofencesvc
09-14 17:12:36.873  1482  4023 E ActivityManager: java.lang.Throwable
09-14 17:12:36.873  1482  4023 E ActivityManager: 	at com.android.server.am.ActivityManagerService.broadcastIntentLocked(ActivityManagerService.java:18226)
09-14 17:12:36.873  1482  4023 E ActivityManager: 	at com.android.server.am.ActivityManagerService.broadcastIntent(ActivityManagerService.java:18826)
09-14 17:12:36.873  1482  4023 E ActivityManager: 	at android.app.ActivityManagerNative.onTransact(ActivityManagerNative.java:512)
09-14 17:12:36.873  1482  4023 E ActivityManager: 	at com.android.server.am.ActivityManagerService.onTransact(ActivityManagerService.java:2906)
09-14 17:12:36.873  1482  4023 E ActivityManager: 	at android.os.Binder.execTransact(Binder.java:565)
09-14 17:12:36.997  1482  1534 I LaunchCheckinHandler: Displayed com.smartdrive.technician/.activities.AdasCalibrationActivity,wp,ca,134
09-14 17:12:36.997  1482  1534 I ActivityManager: Displayed com.smartdrive.technician/.activities.AdasCalibrationActivity: +134ms
09-14 17:12:37.037  1482  4013 I WindowManager: Destroying surface Surface(name=com.smartdrive.technician/com.smartdrive.technician.activities.MainActivity) called by com.android.server.wm.WindowStateAnimator.destroySurface:2069 com.android.server.wm.WindowStateAnimator.destroySurfaceLocked:897 com.android.server.wm.WindowState.destroyOrSaveSurface:2121 com.android.server.wm.WindowManagerService.tryStartExitingAnimation:3085 com.android.server.wm.WindowManagerService.relayoutWindow:2965 com.android.server.wm.Session.relayout:224 android.view.IWindowSession$Stub.onTransact:286 com.android.server.wm.Session.onTransact:145 
09-14 17:12:37.061  1482  3692 D BatteryService: uevent={POWER_SUPPLY_TEMP=312, POWER_SUPPLY_STATUS=Full, POWER_SUPPLY_CAPACITY=100, ACTION=change, DEVPATH=/devices/soc.0/qpnp-smbcharger-17/power_supply/battery, POWER_SUPPLY_AGE=101, POWER_SUPPLY_VOLTAGE_MAX=4350, SUBSYSTEM=power_supply, POWER_SUPPLY_NUM_SYSTEM_TEMP_LEVELS=8, POWER_SUPPLY_VOLTAGE_MAX_DESIGN=4350000, POWER_SUPPLY_INPUT_CURRENT_MAX=1500000, POWER_SUPPLY_CHARGE_FULL=3061000, POWER_SUPPLY_NAME=battery, POWER_SUPPLY_FLASH_CURRENT_MAX=2867538, POWER_SUPPLY_HEALTH=Good, POWER_SUPPLY_CYCLE_COUNT=0, POWER_SUPPLY_TECHNOLOGY=Li-ion, POWER_SUPPLY_CHARGE_TYPE=N/A, POWER_SUPPLY_PRESENT=1, POWER_SUPPLY_CONSTANT_CHARGE_CURRENT_MAX=2500000, POWER_SUPPLY_TEMP_HOTSPOT=0, POWER_SUPPLY_INPUT_CURRENT_SETTLED=1, POWER_SUPPLY_SAFETY_TIMER_ENABLED=0, POWER_SUPPLY_FLASH_ACTIVE=0, POWER_SUPPLY_VOLTAGE_NOW=4311345, SEQNUM=5061, POWER_SUPPLY_CHARGE_FULL_DESIGN=3029000, POWER_SUPPLY_CURRENT_NOW=152, POWER_SUPPLY_SYSTEM_TEMP_LEVEL=0, POWER_SUPPLY_CHARGE_COUNTER=3029000, POWER_SUPPLY_CHARGE_RATE=Normal, POWER_SUPPLY_CHARGING_ENABLED=1, POWER_SUPPLY_BATTERY_CHARGING_ENABLED=1}
09-14 17:12:37.967 26949 26949 V BleController: SendRawSegment(InitiateBluetoothFileSharing): 33 00 00 33 
09-14 17:12:38.075 26949 26962 V BleController: onCharacteristicWrite(447c0021-ed49-fe29-71e1-87a4e15ecff6, 0)
09-14 17:12:38.413 26949 26962 V BleController: onCharacteristicChanged(447c0020-ed49-fe29-71e1-87a4e15ecff6): 33 00 90 34 30 3A 39 46 3A 33 38 3A 30 43 3A 38 36 3A 44 58 
09-14 17:12:38.415 26949 26962 V BleController: onCharacteristicChanged(447c0020-ed49-fe29-71e1-87a4e15ecff6): 33 01 90 36 2F 30 30 30 30 31 31 30 31 2D 30 30 30 30 2D C6 
09-14 17:12:38.416 26949 26962 V BleController: onCharacteristicChanged(447c0020-ed49-fe29-71e1-87a4e15ecff6): 33 02 90 31 30 30 30 2D 38 30 30 30 2D 30 30 38 30 35 66 0B 
09-14 17:12:38.419 26949 26962 V BleController: onCharacteristicChanged(447c0020-ed49-fe29-71e1-87a4e15ecff6): 33 03 06 39 62 33 34 66 62 06 
09-14 17:12:38.420 26949 26962 V BleController: SendAckOrErrorSegment(InitiateBluetoothFileSharing): 25 00 04 33 00 03 00 5F 
09-14 17:12:38.548 26949 26961 V BleController: onCharacteristicWrite(447c0021-ed49-fe29-71e1-87a4e15ecff6, 0)
09-14 17:12:38.552 26949 27427 W BluetoothAdapter: getBluetoothService() called with no BluetoothManagerCallback
09-14 17:12:38.553  4443  4853 W bt_l2cap: L2CA_ErtmConnectReq()  PSM: 0x0001  BDA: 409f380c86d6  p_ertm_info: 0x00000000 allowed:0x0 preferred:0
09-14 17:12:38.557  4443  4853 E bt_btif : bte_scan_filt_param_cfg_evt, 23
09-14 17:12:38.770   845   845 I MSM-irqbalance: Decided to move IRQ240 from CPU7 to CPU6
09-14 17:12:39.354  4443  4853 W bt_btm  : btm_acl_role_changed: BDA: 40-9f-38-0c-86-d6
09-14 17:12:39.354  4443  4853 W bt_btm  : btm_acl_role_changed: New role: 1
09-14 17:12:39.368  4443  4853 W bt_btm  : btm_acl_created hci_handle=28 link_role=1  transport=1
09-14 17:12:39.368  4443  4853 W bt_btm  : btm_acl_created hci_handle=28 link_role=1  transport=1
09-14 17:12:39.368  4443  4853 W bt_l2cap: L2CAP - st: CLOSED evt: 0
09-14 17:12:39.368  4443  4853 W bt_l2cap: L2CAP - st: ORIG_W4_SEC_COMP evt: 7
09-14 17:12:39.368  4443  4853 E bt_btif : bta_dm_acl_change new acl connetion:count = 2
09-14 17:12:39.368  4443  4853 W bt_btif : bta_dm_acl_change info: 0x10
09-14 17:12:39.369  4443  4853 W bt_l2cap: L2CA_SetDesireRole() new:x0, disallow_switch:0
09-14 17:12:39.369  4443  4550 D bt_btif_dm: remote version info [40:9f:38:0c:86:d6]: 0, 0, 0
09-14 17:12:39.386  4443  4853 W bt_btm  : btm_read_remote_version_complete: BDA: 40-9f-38-0c-86-d6
09-14 17:12:39.386  4443  4853 W bt_btm  : btm_read_remote_version_complete lmp_version 6 manufacturer 93 lmp_subversion 40819
09-14 17:12:39.406  4443  4550 E BluetoothRemoteDevices: state12newState0
09-14 17:12:39.436  4929  4929 W SearchServiceCore: Abort, client detached.
09-14 17:12:39.444  4929  4929 I DeviceDetector: UUID = 00001101-0000-1000-8000-00805f9b34fb
09-14 17:12:39.444  4929  4929 I DeviceDetector: UUID = 0000110e-0000-1000-8000-00805f9b34fb
09-14 17:12:39.444  4929  4929 I DeviceDetector: UUID = 00000000-0000-1000-8000-00805f9b34fb
09-14 17:12:39.458  4443  4853 W bt_l2cap: L2CAP - st: W4_L2CAP_CON_RSP evt: 19
09-14 17:12:39.470  4443  4853 W bt_l2cap: L2CAP - st: W4_L2CAP_CON_RSP evt: 11
09-14 17:12:39.470  4443  4853 W bt_l2cap: L2CAP - st: CONFIG evt: 24
09-14 17:12:39.471  4443  4853 W bt_l2cap: L2CAP - st: CONFIG evt: 14
09-14 17:12:39.471  4443  4853 W bt_l2cap: L2CAP - st: CONFIG evt: 25
09-14 17:12:39.471  4443  4853 W bt_l2cap: L2CAP-Upper layer Config_Rsp,Local CID: 0x004c,Remote CID: 0x0040,PSM: 1,our MTU present:1,our MTU:672
09-14 17:12:39.475  4443  4853 W bt_l2cap: L2CAP - st: CONFIG evt: 15
09-14 17:12:39.475  4443  4853 W bt_l2cap: L2CAP-peer_Config_Rsp,Local CID: 0x004c,Remote CID: 0x0040,PSM: 1,peer MTU present: 0,peer MTU: 672
09-14 17:12:39.481  4443  4853 W bt_sdp  : process_service_search_attr_rsp
09-14 17:12:39.481  4443  4853 W bt_l2cap: L2CA_DisconnectReq()  CID: 0x004c
09-14 17:12:39.486  4443  4853 W bt_l2cap: L2CAP - st: W4_L2CAP_DISC_RSP evt: 18
09-14 17:12:39.487  4443  4853 W bt_l2cap: L2CA_ErtmConnectReq()  PSM: 0x0003  BDA: 409f380c86d6  p_ertm_info: 0x00000000 allowed:0x0 preferred:0
09-14 17:12:39.487  4443  4853 W bt_l2cap: L2CAP - st: CLOSED evt: 21
09-14 17:12:39.587  4443  4853 W bt_l2cap: L2CAP - st: ORIG_W4_SEC_COMP evt: 7
09-14 17:12:39.594  4443  4853 W bt_l2cap: L2CAP - st: W4_L2CAP_CON_RSP evt: 13
09-14 17:12:39.594  4443  4853 W bt_rfcomm: PORT_StartCnf failed result:3
09-14 17:12:39.594  4443  4905 E bt_btif_sock_rfcomm: find_rfc_slot_by_id unable to find RFCOMM slot id: 12
09-14 17:12:39.594 26949 27427 W System.err: java.io.IOException: read failed, socket might closed or timeout, read ret: -1
09-14 17:12:39.594 26949 27427 W System.err: 	at android.bluetooth.BluetoothSocket.readAll(BluetoothSocket.java:741)
09-14 17:12:39.594 26949 27427 W System.err: 	at android.bluetooth.BluetoothSocket.waitSocketSignal(BluetoothSocket.java:700)
09-14 17:12:39.594 26949 27427 W System.err: 	at android.bluetooth.BluetoothSocket.connect(BluetoothSocket.java:379)
09-14 17:12:39.595 26949 27427 W System.err: 	at com.smartdrive.technician.controller.BluetoothClassicController$BluetoothSocketThread.run(BluetoothClassicController.java:155)
09-14 17:12:39.628   553   733 I SFPerfTracer:      triggers: (rate: 0:0) (0 sw vsyncs) (0 skipped) (96:750496 vsyncs) (98:755353)
09-14 17:12:39.629   553   553 I SFPerfTracer:      triggers: (rate: 21:397) (compose: 0:233) (post: 0:0) (render: 0:220) (97:751935 frames) (98:755074)
09-14 17:12:39.629   553   553 D SFPerfTracer:        layers: (3:9) (StatusBar (0xb32c4c00): 0:7588) (com.android.systemui.ImageWallpaper (0xb32c3800): 0:3805)* (NavigationBar (0xb2f0d000): 0:3929) (DimLayerController/Stack=0 (0xb2f0f800): 0:1070)* (Sprite (0xb32c1000): 0:3)* (animation background stackId=1 (0xb32d6000): 0:8)* (com.smartdrive.technician/com.smartdrive.technician.activities.AdasCalibrationActivity (0xb2f0bc00): 0:1825)- (com.smartdrive.technician/com.smartdrive.technician.activities.MainActivity (0xb2f0e400): 0:36)- (com.smartdrive.technician/com.smartdrive.technician.activities.AdasCalibrationActivity (0xb2f0bc00): 98:106) 
09-14 17:12:39.852  4543 27430 I Thermal-Lib: Thermal-Lib-Client: Client request sent
09-14 17:12:39.852   574   682 I ThermalEngine: Thermal-Server: Thermal received msg from  override
09-14 17:12:39.853   574   682 E ThermalEngine: override_notify: SS mode 0 override
09-14 17:12:43.590  4443  4853 I bt_btm_sec: btm_sec_disconnected clearing pending flag handle:28 reason:5
09-14 17:12:43.590  4443  4853 W bt_l2cap: L2CA_SetDesireRole() new:x0, disallow_switch:0
09-14 17:12:43.596  4443  4550 E BluetoothRemoteDevices: state12newState1
09-14 17:12:43.600  4443  4443 D BluetoothMapService: onReceive
09-14 17:12:43.600  4443  4443 D BluetoothMapService: onReceive: android.bluetooth.device.action.ACL_DISCONNECTED
09-14 17:12:43.601  4443  4443 E BluetoothMapService: Unexpected error!
09-14 17:12:43.602  4443  4443 I BluetoothPbapReceiver: Enter - onReceive for intent:android.bluetooth.device.action.ACL_DISCONNECTED
09-14 17:12:43.609  4443  4443 I BluetoothPbapReceiver: Exit - onReceive for intent:android.bluetooth.device.action.ACL_DISCONNECTED
09-14 17:12:43.609  4443  4443 D BluetoothPbapService: Enter - onStartCommand for service PBAP
09-14 17:12:43.610  4443  4443 D BluetoothPbapService: action: android.bluetooth.device.action.ACL_DISCONNECTED
09-14 17:12:43.610  4443  4443 D BluetoothPbapService: Exit - onStartCommand for service PBAP
09-14 17:12:43.643  4929  4929 W SearchServiceCore: Abort, client detached.
09-14 17:12:43.653  4929  4929 I DeviceDetector: UUID = 00001101-0000-1000-8000-00805f9b34fb
09-14 17:12:43.655  4929  4929 I DeviceDetector: UUID = 0000110e-0000-1000-8000-00805f9b34fb
09-14 17:12:43.656  4929  4929 I DeviceDetector: UUID = 00000000-0000-1000-8000-00805f9b34fb
09-14 17:12:44.659   553   553 I SFPerfTracer:      triggers: (rate: 21:397) (compose: 0:233) (post: 0:0) (render: 0:220) (298:752235 frames) (299:755379)
09-14 17:12:44.660   553   553 D SFPerfTracer:        layers: (5:8) (StatusBar (0xb32c4c00): 14:7608) (com.android.systemui.ImageWallpaper (0xb32c3800): 14:3825)* (NavigationBar (0xb2f0d000): 14:3949) (DimLayerController/Stack=0 (0xb2f0f800): 12:1083) (Sprite (0xb32c1000): 0:3)* (animation background stackId=1 (0xb32d6000): 0:8)* (com.smartdrive.technician/com.smartdrive.technician.activities.AdasCalibrationActivity (0xb2f0bc00): 299:411) (com.smartdrive.technician/com.smartdrive.technician.activities.AdasCalibrationActivity (0xb2f0e400): 14:20) 
09-14 17:12:44.706  1482  1534 I WindowManager: Destroying surface Surface(name=com.smartdrive.technician/com.smartdrive.technician.activities.AdasCalibrationActivity) called by com.android.server.wm.WindowStateAnimator.destroySurface:2069 com.android.server.wm.WindowStateAnimator.destroySurfaceLocked:897 com.android.server.wm.WindowState.destroyOrSaveSurface:2121 com.android.server.wm.AppWindowToken.destroySurfaces:363 com.android.server.wm.WindowStateAnimator.finishExit:575 com.android.server.wm.WindowStateAnimator.stepAnimationLocked:501 com.android.server.wm.WindowAnimator.updateWindowsLocked:303 com.android.server.wm.WindowAnimator.animateLocked:704 
09-14 17:12:46.717  5129  5556 W MDM     : StatsFactory - Interface [wlan0] => Type [Wifi]
09-14 17:12:46.717  5129  5556 W MDM     : StatsFactory - Interface [sit0] => Type [Vpn]
09-14 17:12:46.717  5129  5556 W MDM     : StatsFactory - Interface [dummy0] => Type [Mobile]
09-14 17:12:46.717  5129  5556 W MDM     : StatsFactory - Interface [usb0] => Type [Mobile]
09-14 17:12:46.717  5129  5556 W MDM     : StatsFactory - Interface [lo] => Type [LoopBack]
09-14 17:12:46.717  5129  5556 W MDM     : StatsFactory - Interface [p2p0] => Type [WifiLink]
09-14 17:12:46.760  5129  5556 W MDM     : StatsFactory - Interface [wlan0] => Type [Wifi]
09-14 17:12:46.761  5129  5556 W MDM     : StatsFactory - Interface [sit0] => Type [Vpn]
09-14 17:12:46.761  5129  5556 W MDM     : StatsFactory - Interface [dummy0] => Type [Mobile]
09-14 17:12:46.761  5129  5556 W MDM     : StatsFactory - Interface [usb0] => Type [Mobile]
09-14 17:12:46.761  5129  5556 W MDM     : StatsFactory - Interface [lo] => Type [LoopBack]
09-14 17:12:46.761  5129  5556 W MDM     : StatsFactory - Interface [p2p0] => Type [WifiLink]
09-14 17:12:46.804  5129  5556 W MDM     : StatsFactory - Interface [wlan0] => Type [Wifi]
09-14 17:12:46.804  5129  5556 W MDM     : StatsFactory - Interface [sit0] => Type [Vpn]
09-14 17:12:46.804  5129  5556 W MDM     : StatsFactory - Interface [dummy0] => Type [Mobile]
09-14 17:12:46.804  5129  5556 W MDM     : StatsFactory - Interface [usb0] => Type [Mobile]
09-14 17:12:46.804  5129  5556 W MDM     : StatsFactory - Interface [lo] => Type [LoopBack]
09-14 17:12:46.804  5129  5556 W MDM     : StatsFactory - Interface [p2p0] => Type [WifiLink]
09-14 17:12:46.852  5129  5556 W MDM     : StatsFactory - Interface [wlan0] => Type [Wifi]
09-14 17:12:46.852  5129  5556 W MDM     : StatsFactory - Interface [sit0] => Type [Vpn]
09-14 17:12:46.852  5129  5556 W MDM     : StatsFactory - Interface [dummy0] => Type [Mobile]
09-14 17:12:46.852  5129  5556 W MDM     : StatsFactory - Interface [usb0] => Type [Mobile]
09-14 17:12:46.853  5129  5556 W MDM     : StatsFactory - Interface [lo] => Type [LoopBack]
09-14 17:12:46.853  5129  5556 W MDM     : StatsFactory - Interface [p2p0] => Type [WifiLink]
09-14 17:12:52.680  4929 26929 W NamedFutures: Timeout future task has been cancelled: 9000 milliseconds
09-14 17:12:52.681  4929  4929 E SearchServiceStarter: Task 174 failed or timed out. Client 21679508200956517 disconnecting from SearchService!
09-14 17:12:52.681  4929  4929 E SearchServiceStarter: java.util.concurrent.CancellationException: Task was cancelled.
09-14 17:12:52.681  4929  4929 E SearchServiceStarter: 	at com.google.common.util.concurrent.d.fb(SourceFile:78)
09-14 17:12:52.681  4929  4929 E SearchServiceStarter: 	at com.google.common.util.concurrent.d.get(SourceFile:60)
09-14 17:12:52.681  4929  4929 E SearchServiceStarter: 	at com.google.common.util.concurrent.cv.n(SourceFile:1)
09-14 17:12:52.681  4929  4929 E SearchServiceStarter: 	at com.google.common.util.concurrent.bc.p(SourceFile:32)
09-14 17:12:52.681  4929  4929 E SearchServiceStarter: 	at com.google.common.util.concurrent.be.run(SourceFile:4)
09-14 17:12:52.681  4929  4929 E SearchServiceStarter: 	at com.google.android.apps.gsa.shared.util.concurrent.b.ba.run(SourceFile:2)
09-14 17:12:52.681  4929  4929 E SearchServiceStarter: 	at android.os.Handler.handleCallback(Handler.java:751)
09-14 17:12:52.681  4929  4929 E SearchServiceStarter: 	at android.os.Handler.dispatchMessage(Handler.java:95)
09-14 17:12:52.681  4929  4929 E SearchServiceStarter: 	at android.os.Looper.loop(Looper.java:154)
09-14 17:12:52.681  4929  4929 E SearchServiceStarter: 	at android.app.ActivityThread.main(ActivityThread.java:6123)
09-14 17:12:52.681  4929  4929 E SearchServiceStarter: 	at java.lang.reflect.Method.invoke(Native Method)
09-14 17:12:52.681  4929  4929 E SearchServiceStarter: 	at com.android.internal.os.ZygoteInit$MethodAndArgsCaller.run(ZygoteInit.java:867)
09-14 17:12:52.681  4929  4929 E SearchServiceStarter: 	at com.android.internal.os.ZygoteInit.main(ZygoteInit.java:757)
09-14 17:12:54.862   553   553 W SurfaceFlinger: couldn't log to binary event log: overflow.
09-14 17:12:57.721  1482  3692 D BatteryService: uevent={POWER_SUPPLY_TEMP=312, POWER_SUPPLY_STATUS=Full, POWER_SUPPLY_CAPACITY=100, ACTION=change, DEVPATH=/devices/soc.0/qpnp-smbcharger-17/power_supply/battery, POWER_SUPPLY_AGE=101, POWER_SUPPLY_VOLTAGE_MAX=4350, SUBSYSTEM=power_supply, POWER_SUPPLY_NUM_SYSTEM_TEMP_LEVELS=8, POWER_SUPPLY_VOLTAGE_MAX_DESIGN=4350000, POWER_SUPPLY_INPUT_CURRENT_MAX=1500000, POWER_SUPPLY_CHARGE_FULL=3061000, POWER_SUPPLY_NAME=battery, POWER_SUPPLY_FLASH_CURRENT_MAX=2867538, POWER_SUPPLY_HEALTH=Good, POWER_SUPPLY_CYCLE_COUNT=0, POWER_SUPPLY_TECHNOLOGY=Li-ion, POWER_SUPPLY_CHARGE_TYPE=N/A, POWER_SUPPLY_PRESENT=1, POWER_SUPPLY_CONSTANT_CHARGE_CURRENT_MAX=2500000, POWER_SUPPLY_TEMP_HOTSPOT=0, POWER_SUPPLY_INPUT_CURRENT_SETTLED=1, POWER_SUPPLY_SAFETY_TIMER_ENABLED=0, POWER_SUPPLY_FLASH_ACTIVE=0, POWER_SUPPLY_VOLTAGE_NOW=4311498, SEQNUM=5062, POWER_SUPPLY_CHARGE_FULL_DESIGN=3029000, POWER_SUPPLY_CURRENT_NOW=152, POWER_SUPPLY_SYSTEM_TEMP_LEVEL=0, POWER_SUPPLY_CHARGE_COUNTER=3029000, POWER_SUPPLY_CHARGE_RATE=Normal, POWER_SUPPLY_CHARGING_ENABLED=1, POWER_SUPPLY_BATTERY_CHARGING_ENABLED=1}
09-14 17:13:00.003  3749  3749 D KeyguardUpdateMonitor: received broadcast android.intent.action.TIME_TICK
09-14 17:13:00.003  3749  3749 D KeyguardUpdateMonitor: handleTimeUpdate
09-14 17:13:01.719  5129  5556 W MDM     : StatsFactory - Interface [wlan0] => Type [Wifi]
09-14 17:13:01.720  5129  5556 W MDM     : StatsFactory - Interface [sit0] => Type [Vpn]
09-14 17:13:01.720  5129  5556 W MDM     : StatsFactory - Interface [dummy0] => Type [Mobile]
09-14 17:13:01.720  5129  5556 W MDM     : StatsFactory - Interface [usb0] => Type [Mobile]
09-14 17:13:01.720  5129  5556 W MDM     : StatsFactory - Interface [lo] => Type [LoopBack]
09-14 17:13:01.720  5129  5556 W MDM     : StatsFactory - Interface [p2p0] => Type [WifiLink]
09-14 17:13:01.765  5129  5556 W MDM     : StatsFactory - Interface [wlan0] => Type [Wifi]
09-14 17:13:01.765  5129  5556 W MDM     : StatsFactory - Interface [sit0] => Type [Vpn]
09-14 17:13:01.765  5129  5556 W MDM     : StatsFactory - Interface [dummy0] => Type [Mobile]
09-14 17:13:01.765  5129  5556 W MDM     : StatsFactory - Interface [usb0] => Type [Mobile]
09-14 17:13:01.765  5129  5556 W MDM     : StatsFactory - Interface [lo] => Type [LoopBack]
09-14 17:13:01.765  5129  5556 W MDM     : StatsFactory - Interface [p2p0] => Type [WifiLink]
09-14 17:13:03.777   845   845 I MSM-irqbalance: Decided to move IRQ170 from CPU5 to CPU6
09-14 17:13:08.538 19337 19352 I Finsky  : [721] com.google.android.finsky.bo.ac.run(5): Stats for Executor: BlockingExecutor com.google.android.finsky.bo.ad@4dea953[Running, pool size = 0, active threads = 0, queued tasks = 0, completed tasks = 2]
09-14 17:13:08.539 19337 19352 I Finsky  : [721] com.google.android.finsky.bo.ac.run(5): Stats for Executor: LightweightExecutor com.google.android.finsky.bo.ad@3979290[Running, pool size = 4, active threads = 0, queued tasks = 0, completed tasks = 8]
09-14 17:13:08.777   845   845 I MSM-irqbalance: Decided to move IRQ222 from CPU5 to CPU6
09-14 17:13:13.778   845   845 I MSM-irqbalance: Decided to move IRQ178 from CPU5 to CPU6
09-14 17:13:16.721  5129  5556 W MDM     : StatsFactory - Interface [wlan0] => Type [Wifi]
09-14 17:13:16.722  5129  5556 W MDM     : StatsFactory - Interface [sit0] => Type [Vpn]
09-14 17:13:16.722  5129  5556 W MDM     : StatsFactory - Interface [dummy0] => Type [Mobile]
09-14 17:13:16.722  5129  5556 W MDM     : StatsFactory - Interface [usb0] => Type [Mobile]
09-14 17:13:16.722  5129  5556 W MDM     : StatsFactory - Interface [lo] => Type [LoopBack]
09-14 17:13:16.722  5129  5556 W MDM     : StatsFactory - Interface [p2p0] => Type [WifiLink]
09-14 17:13:16.758  5129  5556 W MDM     : StatsFactory - Interface [wlan0] => Type [Wifi]
09-14 17:13:16.759  5129  5556 W MDM     : StatsFactory - Interface [sit0] => Type [Vpn]
09-14 17:13:16.759  5129  5556 W MDM     : StatsFactory - Interface [dummy0] => Type [Mobile]
09-14 17:13:16.759  5129  5556 W MDM     : StatsFactory - Interface [usb0] => Type [Mobile]
09-14 17:13:16.759  5129  5556 W MDM     : StatsFactory - Interface [lo] => Type [LoopBack]
09-14 17:13:16.759  5129  5556 W MDM     : StatsFactory - Interface [p2p0] => Type [WifiLink]
09-14 17:13:18.740  4169  4187 D QcrilMsgTunnelSocket: readRilMessage: Buffer = [B@c03ec88 HexData = [010000000404000011000000514f454d484f4f4bef0308000100000003]
09-14 17:13:18.740  4169  4187 D QcrilMsgTunnelSocket: Rcvd UNSOL response with 28 bytes data for SUB0
09-14 17:13:18.740  4169  4187 D QcrilMsgTunnelSocket: Response ID 525295 is not served in this process.
09-14 17:13:18.740  4169  4187 D QcrilMsgTunnelSocket: To broadcast an Intent via the notifier to external apps
09-14 17:13:18.741  4169  4169 D QcrilMsgTunnelIfaceManager: handleMessage what = 0
09-14 17:13:18.748  4006  4006 D QC_RIL_OEM_HOOK: Received Broadcast Intent ACTION_UNSOL_RESPONSE_OEM_HOOK_RAW
09-14 17:13:18.748  4006  4006 D QC_RIL_OEM_HOOK: Oem ID in QCRILHOOK UNSOL RESP is QOEMHOOK
09-14 17:13:18.973  1482  3692 D BatteryService: uevent={POWER_SUPPLY_TEMP=312, POWER_SUPPLY_STATUS=Full, POWER_SUPPLY_CAPACITY=100, ACTION=change, DEVPATH=/devices/soc.0/qpnp-smbcharger-17/power_supply/battery, POWER_SUPPLY_AGE=101, POWER_SUPPLY_VOLTAGE_MAX=4350, SUBSYSTEM=power_supply, POWER_SUPPLY_NUM_SYSTEM_TEMP_LEVELS=8, POWER_SUPPLY_VOLTAGE_MAX_DESIGN=4350000, POWER_SUPPLY_INPUT_CURRENT_MAX=1500000, POWER_SUPPLY_CHARGE_FULL=3061000, POWER_SUPPLY_NAME=battery, POWER_SUPPLY_FLASH_CURRENT_MAX=2838275, POWER_SUPPLY_HEALTH=Good, POWER_SUPPLY_CYCLE_COUNT=0, POWER_SUPPLY_TECHNOLOGY=Li-ion, POWER_SUPPLY_CHARGE_TYPE=N/A, POWER_SUPPLY_PRESENT=1, POWER_SUPPLY_CONSTANT_CHARGE_CURRENT_MAX=2500000, POWER_SUPPLY_TEMP_HOTSPOT=0, POWER_SUPPLY_INPUT_CURRENT_SETTLED=1, POWER_SUPPLY_SAFETY_TIMER_ENABLED=0, POWER_SUPPLY_FLASH_ACTIVE=0, POWER_SUPPLY_VOLTAGE_NOW=4311650, SEQNUM=5063, POWER_SUPPLY_CHARGE_FULL_DESIGN=3029000, POWER_SUPPLY_CURRENT_NOW=152, POWER_SUPPLY_SYSTEM_TEMP_LEVEL=0, POWER_SUPPLY_CHARGE_COUNTER=3029000, POWER_SUPPLY_CHARGE_RATE=Normal, POWER_SUPPLY_CHARGING_ENABLED=1, POWER_SUPPLY_BATTERY_CHARGING_ENABLED=1}
09-14 17:13:31.723  5129  5556 W MDM     : StatsFactory - Interface [wlan0] => Type [Wifi]
09-14 17:13:31.723  5129  5556 W MDM     : StatsFactory - Interface [sit0] => Type [Vpn]
09-14 17:13:31.723  5129  5556 W MDM     : StatsFactory - Interface [dummy0] => Type [Mobile]
09-14 17:13:31.723  5129  5556 W MDM     : StatsFactory - Interface [usb0] => Type [Mobile]
09-14 17:13:31.723  5129  5556 W MDM     : StatsFactory - Interface [lo] => Type [LoopBack]
09-14 17:13:31.723  5129  5556 W MDM     : StatsFactory - Interface [p2p0] => Type [WifiLink]
09-14 17:13:31.757  5129  5556 W MDM     : StatsFactory - Interface [wlan0] => Type [Wifi]
09-14 17:13:31.757  5129  5556 W MDM     : StatsFactory - Interface [sit0] => Type [Vpn]
09-14 17:13:31.757  5129  5556 W MDM     : StatsFactory - Interface [dummy0] => Type [Mobile]
09-14 17:13:31.757  5129  5556 W MDM     : StatsFactory - Interface [usb0] => Type [Mobile]
09-14 17:13:31.757  5129  5556 W MDM     : StatsFactory - Interface [lo] => Type [LoopBack]
09-14 17:13:31.757  5129  5556 W MDM     : StatsFactory - Interface [p2p0] => Type [WifiLink]
09-14 17:13:43.778   845   845 I MSM-irqbalance: Decided to move IRQ222 from CPU6 to CPU5
09-14 17:13:46.719  5129  5556 W MDM     : StatsFactory - Interface [wlan0] => Type [Wifi]
09-14 17:13:46.719  5129  5556 W MDM     : StatsFactory - Interface [sit0] => Type [Vpn]
09-14 17:13:46.720  5129  5556 W MDM     : StatsFactory - Interface [dummy0] => Type [Mobile]
09-14 17:13:46.720  5129  5556 W MDM     : StatsFactory - Interface [usb0] => Type [Mobile]
09-14 17:13:46.720  5129  5556 W MDM     : StatsFactory - Interface [lo] => Type [LoopBack]
09-14 17:13:46.720  5129  5556 W MDM     : StatsFactory - Interface [p2p0] => Type [WifiLink]
09-14 17:13:46.765  5129  5556 W MDM     : StatsFactory - Interface [wlan0] => Type [Wifi]
09-14 17:13:46.765  5129  5556 W MDM     : StatsFactory - Interface [sit0] => Type [Vpn]
09-14 17:13:46.765  5129  5556 W MDM     : StatsFactory - Interface [dummy0] => Type [Mobile]
09-14 17:13:46.765  5129  5556 W MDM     : StatsFactory - Interface [usb0] => Type [Mobile]
09-14 17:13:46.765  5129  5556 W MDM     : StatsFactory - Interface [lo] => Type [LoopBack]
09-14 17:13:46.765  5129  5556 W MDM     : StatsFactory - Interface [p2p0] => Type [WifiLink]
09-14 17:13:48.777   845   845 I MSM-irqbalance: Decided to move IRQ174 from CPU6 to CPU5
09-14 17:13:53.777   845   845 I MSM-irqbalance: Decided to move IRQ215 from CPU6 to CPU5
09-14 17:13:57.884  1482  3692 D BatteryService: uevent={POWER_SUPPLY_TEMP=312, POWER_SUPPLY_STATUS=Full, POWER_SUPPLY_CAPACITY=100, ACTION=change, DEVPATH=/devices/soc.0/qpnp-smbcharger-17/power_supply/battery, POWER_SUPPLY_AGE=101, POWER_SUPPLY_VOLTAGE_MAX=4350, SUBSYSTEM=power_supply, POWER_SUPPLY_NUM_SYSTEM_TEMP_LEVELS=8, POWER_SUPPLY_VOLTAGE_MAX_DESIGN=4350000, POWER_SUPPLY_INPUT_CURRENT_MAX=1500000, POWER_SUPPLY_CHARGE_FULL=3061000, POWER_SUPPLY_NAME=battery, POWER_SUPPLY_FLASH_CURRENT_MAX=2867538, POWER_SUPPLY_HEALTH=Good, POWER_SUPPLY_CYCLE_COUNT=0, POWER_SUPPLY_TECHNOLOGY=Li-ion, POWER_SUPPLY_CHARGE_TYPE=N/A, POWER_SUPPLY_PRESENT=1, POWER_SUPPLY_CONSTANT_CHARGE_CURRENT_MAX=2500000, POWER_SUPPLY_TEMP_HOTSPOT=0, POWER_SUPPLY_INPUT_CURRENT_SETTLED=1, POWER_SUPPLY_SAFETY_TIMER_ENABLED=0, POWER_SUPPLY_FLASH_ACTIVE=0, POWER_SUPPLY_VOLTAGE_NOW=4311650, SEQNUM=5064, POWER_SUPPLY_CHARGE_FULL_DESIGN=3029000, POWER_SUPPLY_CURRENT_NOW=152, POWER_SUPPLY_SYSTEM_TEMP_LEVEL=0, POWER_SUPPLY_CHARGE_COUNTER=3029000, POWER_SUPPLY_CHARGE_RATE=Normal, POWER_SUPPLY_CHARGING_ENABLED=1, POWER_SUPPLY_BATTERY_CHARGING_ENABLED=1}
09-14 17:13:58.777   845   845 I MSM-irqbalance: Decided to move IRQ178 from CPU6 to CPU5
09-14 17:14:00.002  3749  3749 D KeyguardUpdateMonitor: received broadcast android.intent.action.TIME_TICK
09-14 17:14:00.003  3749  3749 D KeyguardUpdateMonitor: handleTimeUpdate
09-14 17:14:00.883  1482  3692 D BatteryService: uevent={POWER_SUPPLY_TEMP=312, POWER_SUPPLY_STATUS=Full, POWER_SUPPLY_CAPACITY=100, ACTION=change, DEVPATH=/devices/soc.0/qpnp-smbcharger-17/power_supply/battery, POWER_SUPPLY_AGE=101, POWER_SUPPLY_VOLTAGE_MAX=4350, SUBSYSTEM=power_supply, POWER_SUPPLY_NUM_SYSTEM_TEMP_LEVELS=8, POWER_SUPPLY_VOLTAGE_MAX_DESIGN=4350000, POWER_SUPPLY_INPUT_CURRENT_MAX=1500000, POWER_SUPPLY_CHARGE_FULL=3061000, POWER_SUPPLY_NAME=battery, POWER_SUPPLY_FLASH_CURRENT_MAX=2867538, POWER_SUPPLY_HEALTH=Good, POWER_SUPPLY_CYCLE_COUNT=0, POWER_SUPPLY_TECHNOLOGY=Li-ion, POWER_SUPPLY_CHARGE_TYPE=N/A, POWER_SUPPLY_PRESENT=1, POWER_SUPPLY_CONSTANT_CHARGE_CURRENT_MAX=2500000, POWER_SUPPLY_TEMP_HOTSPOT=0, POWER_SUPPLY_INPUT_CURRENT_SETTLED=1, POWER_SUPPLY_SAFETY_TIMER_ENABLED=0, POWER_SUPPLY_FLASH_ACTIVE=0, POWER_SUPPLY_VOLTAGE_NOW=4311650, SEQNUM=5065, POWER_SUPPLY_CHARGE_FULL_DESIGN=3029000, POWER_SUPPLY_CURRENT_NOW=152, POWER_SUPPLY_SYSTEM_TEMP_LEVEL=0, POWER_SUPPLY_CHARGE_COUNTER=3029000, POWER_SUPPLY_CHARGE_RATE=Normal, POWER_SUPPLY_CHARGING_ENABLED=1, POWER_SUPPLY_BATTERY_CHARGING_ENABLED=1}
09-14 17:14:01.721  5129  5556 W MDM     : StatsFactory - Interface [wlan0] => Type [Wifi]
09-14 17:14:01.721  5129  5556 W MDM     : StatsFactory - Interface [sit0] => Type [Vpn]
09-14 17:14:01.721  5129  5556 W MDM     : StatsFactory - Interface [dummy0] => Type [Mobile]
09-14 17:14:01.721  5129  5556 W MDM     : StatsFactory - Interface [usb0] => Type [Mobile]
09-14 17:14:01.721  5129  5556 W MDM     : StatsFactory - Interface [lo] => Type [LoopBack]
09-14 17:14:01.721  5129  5556 W MDM     : StatsFactory - Interface [p2p0] => Type [WifiLink]
09-14 17:14:01.767  5129  5556 W MDM     : StatsFactory - Interface [wlan0] => Type [Wifi]
09-14 17:14:01.767  5129  5556 W MDM     : StatsFactory - Interface [sit0] => Type [Vpn]
09-14 17:14:01.767  5129  5556 W MDM     : StatsFactory - Interface [dummy0] => Type [Mobile]
09-14 17:14:01.767  5129  5556 W MDM     : StatsFactory - Interface [usb0] => Type [Mobile]
09-14 17:14:01.767  5129  5556 W MDM     : StatsFactory - Interface [lo] => Type [LoopBack]
09-14 17:14:01.767  5129  5556 W MDM     : StatsFactory - Interface [p2p0] => Type [WifiLink]
09-14 17:14:01.806  5129  5556 W MDM     : StatsFactory - Interface [wlan0] => Type [Wifi]
09-14 17:14:01.806  5129  5556 W MDM     : StatsFactory - Interface [sit0] => Type [Vpn]
09-14 17:14:01.806  5129  5556 W MDM     : StatsFactory - Interface [dummy0] => Type [Mobile]
09-14 17:14:01.806  5129  5556 W MDM     : StatsFactory - Interface [usb0] => Type [Mobile]
09-14 17:14:01.806  5129  5556 W MDM     : StatsFactory - Interface [lo] => Type [LoopBack]
09-14 17:14:01.806  5129  5556 W MDM     : StatsFactory - Interface [p2p0] => Type [WifiLink]
09-14 17:14:01.855  5129  5556 W MDM     : StatsFactory - Interface [wlan0] => Type [Wifi]
09-14 17:14:01.855  5129  5556 W MDM     : StatsFactory - Interface [sit0] => Type [Vpn]
09-14 17:14:01.855  5129  5556 W MDM     : StatsFactory - Interface [dummy0] => Type [Mobile]
09-14 17:14:01.855  5129  5556 W MDM     : StatsFactory - Interface [usb0] => Type [Mobile]
09-14 17:14:01.855  5129  5556 W MDM     : StatsFactory - Interface [lo] => Type [LoopBack]
09-14 17:14:01.855  5129  5556 W MDM     : StatsFactory - Interface [p2p0] => Type [WifiLink]
09-14 17:14:03.777   845   845 I MSM-irqbalance: Decided to move IRQ170 from CPU6 to CPU5
09-14 17:14:08.578 19337 19352 I Finsky  : [721] com.google.android.finsky.bo.ac.run(5): Stats for Executor: BlockingExecutor com.google.android.finsky.bo.ad@4dea953[Running, pool size = 0, active threads = 0, queued tasks = 0, completed tasks = 2]
09-14 17:14:08.579 19337 19352 I Finsky  : [721] com.google.android.finsky.bo.ac.run(5): Stats for Executor: LightweightExecutor com.google.android.finsky.bo.ad@3979290[Running, pool size = 4, active threads = 0, queued tasks = 0, completed tasks = 8]
09-14 17:14:16.718  5129  5556 W MDM     : StatsFactory - Interface [wlan0] => Type [Wifi]
09-14 17:14:16.718  5129  5556 W MDM     : StatsFactory - Interface [sit0] => Type [Vpn]
09-14 17:14:16.718  5129  5556 W MDM     : StatsFactory - Interface [dummy0] => Type [Mobile]
09-14 17:14:16.718  5129  5556 W MDM     : StatsFactory - Interface [usb0] => Type [Mobile]
09-14 17:14:16.718  5129  5556 W MDM     : StatsFactory - Interface [lo] => Type [LoopBack]
09-14 17:14:16.719  5129  5556 W MDM     : StatsFactory - Interface [p2p0] => Type [WifiLink]
09-14 17:14:16.765  5129  5556 W MDM     : StatsFactory - Interface [wlan0] => Type [Wifi]
09-14 17:14:16.765  5129  5556 W MDM     : StatsFactory - Interface [sit0] => Type [Vpn]
09-14 17:14:16.765  5129  5556 W MDM     : StatsFactory - Interface [dummy0] => Type [Mobile]
09-14 17:14:16.765  5129  5556 W MDM     : StatsFactory - Interface [usb0] => Type [Mobile]
09-14 17:14:16.765  5129  5556 W MDM     : StatsFactory - Interface [lo] => Type [LoopBack]
09-14 17:14:16.765  5129  5556 W MDM     : StatsFactory - Interface [p2p0] => Type [WifiLink]
09-14 17:14:28.787   845   845 I MSM-irqbalance: Decided to move IRQ271 from CPU4 to CPU6
09-14 17:14:31.715  5129  5556 W MDM     : StatsFactory - Interface [wlan0] => Type [Wifi]
09-14 17:14:31.715  5129  5556 W MDM     : StatsFactory - Interface [sit0] => Type [Vpn]
09-14 17:14:31.715  5129  5556 W MDM     : StatsFactory - Interface [dummy0] => Type [Mobile]
09-14 17:14:31.715  5129  5556 W MDM     : StatsFactory - Interface [usb0] => Type [Mobile]
09-14 17:14:31.715  5129  5556 W MDM     : StatsFactory - Interface [lo] => Type [LoopBack]
09-14 17:14:31.715  5129  5556 W MDM     : StatsFactory - Interface [p2p0] => Type [WifiLink]
09-14 17:14:31.752  5129  5556 W MDM     : StatsFactory - Interface [wlan0] => Type [Wifi]
09-14 17:14:31.752  5129  5556 W MDM     : StatsFactory - Interface [sit0] => Type [Vpn]
09-14 17:14:31.752  5129  5556 W MDM     : StatsFactory - Interface [dummy0] => Type [Mobile]
09-14 17:14:31.752  5129  5556 W MDM     : StatsFactory - Interface [usb0] => Type [Mobile]
09-14 17:14:31.752  5129  5556 W MDM     : StatsFactory - Interface [lo] => Type [LoopBack]
09-14 17:14:31.753  5129  5556 W MDM     : StatsFactory - Interface [p2p0] => Type [WifiLink]
09-14 17:14:33.790   845   845 I MSM-irqbalance: Decided to move IRQ215 from CPU5 to CPU6
09-14 17:14:38.792   845   845 I MSM-irqbalance: Decided to move IRQ222 from CPU5 to CPU6
09-14 17:14:42.800  1482  3692 D BatteryService: uevent={POWER_SUPPLY_TEMP=312, POWER_SUPPLY_STATUS=Full, POWER_SUPPLY_CAPACITY=100, ACTION=change, DEVPATH=/devices/soc.0/qpnp-smbcharger-17/power_supply/battery, POWER_SUPPLY_AGE=101, POWER_SUPPLY_VOLTAGE_MAX=4350, SUBSYSTEM=power_supply, POWER_SUPPLY_NUM_SYSTEM_TEMP_LEVELS=8, POWER_SUPPLY_VOLTAGE_MAX_DESIGN=4350000, POWER_SUPPLY_INPUT_CURRENT_MAX=1500000, POWER_SUPPLY_CHARGE_FULL=3061000, POWER_SUPPLY_NAME=battery, POWER_SUPPLY_FLASH_CURRENT_MAX=2838275, POWER_SUPPLY_HEALTH=Good, POWER_SUPPLY_CYCLE_COUNT=0, POWER_SUPPLY_TECHNOLOGY=Li-ion, POWER_SUPPLY_CHARGE_TYPE=N/A, POWER_SUPPLY_PRESENT=1, POWER_SUPPLY_CONSTANT_CHARGE_CURRENT_MAX=2500000, POWER_SUPPLY_TEMP_HOTSPOT=0, POWER_SUPPLY_INPUT_CURRENT_SETTLED=1, POWER_SUPPLY_SAFETY_TIMER_ENABLED=0, POWER_SUPPLY_FLASH_ACTIVE=0, POWER_SUPPLY_VOLTAGE_NOW=4311956, SEQNUM=5066, POWER_SUPPLY_CHARGE_FULL_DESIGN=3029000, POWER_SUPPLY_CURRENT_NOW=152, POWER_SUPPLY_SYSTEM_TEMP_LEVEL=0, POWER_SUPPLY_CHARGE_COUNTER=3029000, POWER_SUPPLY_CHARGE_RATE=Normal, POWER_SUPPLY_CHARGING_ENABLED=1, POWER_SUPPLY_BATTERY_CHARGING_ENABLED=1}
09-14 17:14:43.790   845   845 I MSM-irqbalance: Decided to move IRQ178 from CPU5 to CPU6
09-14 17:14:46.558  1482  4023 D BatteryService: mLastPlugType/mPlugType:1/1
09-14 17:14:46.559  1482  4023 D BatteryService: set mLastPlugType to 1
09-14 17:14:46.561  4006  4006 D VideoCall_LowBattery: BatteryIntent received: android.intent.action.BATTERY_CHANGED
09-14 17:14:46.562  4626  4732 W QCNEJ   : |CORE| CNE received unexpected action: android.intent.action.BATTERY_CHANGED
09-14 17:14:46.562  3749  3749 D KeyguardUpdateMonitor: received broadcast android.intent.action.BATTERY_CHANGED
09-14 17:14:46.563  4443  4924 D HeadsetStateMachine: Disconnected process message: 10, size: 0
09-14 17:14:46.563  4443  4924 D HeadsetStateMachine: Enter processIntentBatteryChanged()
09-14 17:14:46.563  4443  4924 D HeadsetStateMachine: Exit processIntentBatteryChanged()
09-14 17:14:46.563  4443  4924 D HeadsetStateMachine: Exit Disconnected processMessage() 
09-14 17:14:46.565  4006  4006 E QtiImsExtUtils: getConfigForPhoneId subId is invalid
09-14 17:14:46.565  4006  4006 E QtiImsExtUtils: isCarrierConfigEnabled bundle is null
09-14 17:14:46.565  4006  4006 D VideoCall_LowBattery:  allowVideoCallsInLowBattery: false isCarrierOneSupported: false mIsLowbattery: false
09-14 17:14:46.568  3749  3749 D KeyguardUpdateMonitor: handleBatteryUpdate
09-14 17:14:46.721  5129  5556 W MDM     : StatsFactory - Interface [wlan0] => Type [Wifi]
09-14 17:14:46.721  5129  5556 W MDM     : StatsFactory - Interface [sit0] => Type [Vpn]
09-14 17:14:46.722  5129  5556 W MDM     : StatsFactory - Interface [dummy0] => Type [Mobile]
09-14 17:14:46.722  5129  5556 W MDM     : StatsFactory - Interface [usb0] => Type [Mobile]
09-14 17:14:46.722  5129  5556 W MDM     : StatsFactory - Interface [lo] => Type [LoopBack]
09-14 17:14:46.722  5129  5556 W MDM     : StatsFactory - Interface [p2p0] => Type [WifiLink]
09-14 17:14:46.764  5129  5556 W MDM     : StatsFactory - Interface [wlan0] => Type [Wifi]
09-14 17:14:46.764  5129  5556 W MDM     : StatsFactory - Interface [sit0] => Type [Vpn]
09-14 17:14:46.764  5129  5556 W MDM     : StatsFactory - Interface [dummy0] => Type [Mobile]
09-14 17:14:46.764  5129  5556 W MDM     : StatsFactory - Interface [usb0] => Type [Mobile]
09-14 17:14:46.764  5129  5556 W MDM     : StatsFactory - Interface [lo] => Type [LoopBack]
09-14 17:14:46.764  5129  5556 W MDM     : StatsFactory - Interface [p2p0] => Type [WifiLink]
09-14 17:14:58.044  1482  3692 D BatteryService: uevent={POWER_SUPPLY_TEMP=312, POWER_SUPPLY_STATUS=Full, POWER_SUPPLY_CAPACITY=100, ACTION=change, DEVPATH=/devices/soc.0/qpnp-smbcharger-17/power_supply/battery, POWER_SUPPLY_AGE=101, POWER_SUPPLY_VOLTAGE_MAX=4350, SUBSYSTEM=power_supply, POWER_SUPPLY_NUM_SYSTEM_TEMP_LEVELS=8, POWER_SUPPLY_VOLTAGE_MAX_DESIGN=4350000, POWER_SUPPLY_INPUT_CURRENT_MAX=1500000, POWER_SUPPLY_CHARGE_FULL=3061000, POWER_SUPPLY_NAME=battery, POWER_SUPPLY_FLASH_CURRENT_MAX=2867538, POWER_SUPPLY_HEALTH=Good, POWER_SUPPLY_CYCLE_COUNT=0, POWER_SUPPLY_TECHNOLOGY=Li-ion, POWER_SUPPLY_CHARGE_TYPE=N/A, POWER_SUPPLY_PRESENT=1, POWER_SUPPLY_CONSTANT_CHARGE_CURRENT_MAX=2500000, POWER_SUPPLY_TEMP_HOTSPOT=0, POWER_SUPPLY_INPUT_CURRENT_SETTLED=1, POWER_SUPPLY_SAFETY_TIMER_ENABLED=0, POWER_SUPPLY_FLASH_ACTIVE=0, POWER_SUPPLY_VOLTAGE_NOW=4311650, SEQNUM=5067, POWER_SUPPLY_CHARGE_FULL_DESIGN=3029000, POWER_SUPPLY_CURRENT_NOW=152, POWER_SUPPLY_SYSTEM_TEMP_LEVEL=0, POWER_SUPPLY_CHARGE_COUNTER=3029000, POWER_SUPPLY_CHARGE_RATE=Normal, POWER_SUPPLY_CHARGING_ENABLED=1, POWER_SUPPLY_BATTERY_CHARGING_ENABLED=1}
09-14 17:14:58.046  1482  4003 D BatteryService: mLastPlugType/mPlugType:1/1
09-14 17:14:58.047  1482  4003 D BatteryService: set mLastPlugType to 1
09-14 17:14:58.049  3749  3749 D KeyguardUpdateMonitor: received broadcast android.intent.action.BATTERY_CHANGED
09-14 17:14:58.050  4006  4006 D VideoCall_LowBattery: BatteryIntent received: android.intent.action.BATTERY_CHANGED
09-14 17:14:58.050  4626  4732 W QCNEJ   : |CORE| CNE received unexpected action: android.intent.action.BATTERY_CHANGED
09-14 17:14:58.050  4443  4924 D HeadsetStateMachine: Disconnected process message: 10, size: 0
09-14 17:14:58.050  4443  4924 D HeadsetStateMachine: Enter processIntentBatteryChanged()
09-14 17:14:58.051  4443  4924 D HeadsetStateMachine: Exit processIntentBatteryChanged()
09-14 17:14:58.051  4443  4924 D HeadsetStateMachine: Exit Disconnected processMessage() 
09-14 17:14:58.052  3749  3749 D KeyguardUpdateMonitor: handleBatteryUpdate
09-14 17:14:58.053  4006  4006 E QtiImsExtUtils: getConfigForPhoneId subId is invalid
09-14 17:14:58.053  4006  4006 E QtiImsExtUtils: isCarrierConfigEnabled bundle is null
09-14 17:14:58.053  4006  4006 D VideoCall_LowBattery:  allowVideoCallsInLowBattery: false isCarrierOneSupported: false mIsLowbattery: false
09-14 17:15:00.003  3749  3749 D KeyguardUpdateMonitor: received broadcast android.intent.action.TIME_TICK
09-14 17:15:00.003  3749  3749 D KeyguardUpdateMonitor: handleTimeUpdate
09-14 17:15:01.721  5129  5556 W MDM     : StatsFactory - Interface [wlan0] => Type [Wifi]
09-14 17:15:01.721  5129  5556 W MDM     : StatsFactory - Interface [sit0] => Type [Vpn]
09-14 17:15:01.721  5129  5556 W MDM     : StatsFactory - Interface [dummy0] => Type [Mobile]
09-14 17:15:01.721  5129  5556 W MDM     : StatsFactory - Interface [usb0] => Type [Mobile]
09-14 17:15:01.721  5129  5556 W MDM     : StatsFactory - Interface [lo] => Type [LoopBack]
09-14 17:15:01.721  5129  5556 W MDM     : StatsFactory - Interface [p2p0] => Type [WifiLink]
09-14 17:15:01.764  5129  5556 W MDM     : StatsFactory - Interface [wlan0] => Type [Wifi]
09-14 17:15:01.764  5129  5556 W MDM     : StatsFactory - Interface [sit0] => Type [Vpn]
09-14 17:15:01.764  5129  5556 W MDM     : StatsFactory - Interface [dummy0] => Type [Mobile]
09-14 17:15:01.764  5129  5556 W MDM     : StatsFactory - Interface [usb0] => Type [Mobile]
09-14 17:15:01.764  5129  5556 W MDM     : StatsFactory - Interface [lo] => Type [LoopBack]
09-14 17:15:01.765  5129  5556 W MDM     : StatsFactory - Interface [p2p0] => Type [WifiLink]
09-14 17:15:02.549  4543  4558 E ANDR-PERF-MPCTL: Invalid profile no. 0, total profiles 0 only
09-14 17:15:02.645  1482  1496 E ActivityManager: Sending non-protected broadcast com.motorola.motocare.INTENT_TRIGGER from system 3932:com.motorola.process.system/1000 pkg com.motorola.motgeofencesvc
09-14 17:15:02.645  1482  1496 E ActivityManager: java.lang.Throwable
09-14 17:15:02.645  1482  1496 E ActivityManager: 	at com.android.server.am.ActivityManagerService.broadcastIntentLocked(ActivityManagerService.java:18226)
09-14 17:15:02.645  1482  1496 E ActivityManager: 	at com.android.server.am.ActivityManagerService.broadcastIntent(ActivityManagerService.java:18826)
09-14 17:15:02.645  1482  1496 E ActivityManager: 	at android.app.ActivityManagerNative.onTransact(ActivityManagerNative.java:512)
09-14 17:15:02.645  1482  1496 E ActivityManager: 	at com.android.server.am.ActivityManagerService.onTransact(ActivityManagerService.java:2906)
09-14 17:15:02.645  1482  1496 E ActivityManager: 	at android.os.Binder.execTransact(Binder.java:565)
09-14 17:15:02.653  1482  4005 E ActivityManager: Sending non-protected broadcast com.motorola.motocare.INTENT_TRIGGER from system 3932:com.motorola.process.system/1000 pkg com.motorola.motgeofencesvc
09-14 17:15:02.653  1482  4005 E ActivityManager: java.lang.Throwable
09-14 17:15:02.653  1482  4005 E ActivityManager: 	at com.android.server.am.ActivityManagerService.broadcastIntentLocked(ActivityManagerService.java:18226)
09-14 17:15:02.653  1482  4005 E ActivityManager: 	at com.android.server.am.ActivityManagerService.broadcastIntent(ActivityManagerService.java:18826)
09-14 17:15:02.653  1482  4005 E ActivityManager: 	at android.app.ActivityManagerNative.onTransact(ActivityManagerNative.java:512)
09-14 17:15:02.653  1482  4005 E ActivityManager: 	at com.android.server.am.ActivityManagerService.onTransact(ActivityManagerService.java:2906)
09-14 17:15:02.653  1482  4005 E ActivityManager: 	at android.os.Binder.execTransact(Binder.java:565)
09-14 17:15:02.680   553   553 I SFPerfTracer:      triggers: (rate: 21:397) (compose: 0:233) (post: 0:0) (render: 0:220) (8370:760618 frames) (8371:763766)
09-14 17:15:02.680   553   553 D SFPerfTracer:        layers: (3:8) (StatusBar (0xb32c4c00): 18:7641) (com.android.systemui.ImageWallpaper (0xb32c3800): 4:3844)* (NavigationBar (0xb2f0d000): 4:3968) (DimLayerController/Stack=0 (0xb2f0f800): 1:1097)* (Sprite (0xb32c1000): 0:3)* (animation background stackId=1 (0xb32d6000): 0:8)* (com.smartdrive.technician/com.smartdrive.technician.activities.AdasCalibrationActivity (0xb2f0bc00): 8371:8798) (com.smartdrive.technician/com.smartdrive.technician.activities.AdasCalibrationActivity (0xb2f0e400): 0:23)- 
09-14 17:15:02.795  1482  1496 I WindowManager: Destroying surface Surface(name=com.smartdrive.technician/com.smartdrive.technician.activities.AdasCalibrationActivity) called by com.android.server.wm.WindowStateAnimator.destroySurface:2069 com.android.server.wm.WindowStateAnimator.destroySurfaceLocked:897 com.android.server.wm.WindowState.destroyOrSaveSurface:2121 com.android.server.wm.WindowManagerService.tryStartExitingAnimation:3085 com.android.server.wm.WindowManagerService.relayoutWindow:2965 com.android.server.wm.Session.relayout:224 android.view.IWindowSession$Stub.onTransact:286 com.android.server.wm.Session.onTransact:145 
09-14 17:15:03.807   845   845 I MSM-irqbalance: Decided to move IRQ200 from CPU4 to CPU6
09-14 17:15:04.273   553   731 I SFPerfTracer:      triggers: (rate: 0:0) (0 sw vsyncs) (0 skipped) (8392:757797 vsyncs) (8394:762604)
09-14 17:15:04.307   553   733 I SFPerfTracer:      triggers: (rate: 0:0) (0 sw vsyncs) (0 skipped) (8700:759196 vsyncs) (8702:764055)
09-14 17:15:04.309   553   553 W SurfaceFlinger: couldn't log to binary event log: overflow.
09-14 17:15:07.031  1482  4029 I MotoSensors: Sensorhub hal setDelay: 1 - 20
09-14 17:15:07.031  1482  4029 I MotoSensors: Sensorhub hal setdelay: 1 - 20
09-14 17:15:07.031  1482  4029 I MotoSensors: Sensorhub hal enable: 1 - 1
09-14 17:15:07.031  1482  4029 I MotoSensors: HubSensors::updateAccelRate 20
09-14 17:15:07.037  1482  4749 D WifiService: acquireWifiLockLocked: WifiLock{NlpWifiLock type=2 uid=10036}
09-14 17:15:08.620 19337 19352 I Finsky  : [721] com.google.android.finsky.bo.ac.run(5): Stats for Executor: BlockingExecutor com.google.android.finsky.bo.ad@4dea953[Running, pool size = 0, active threads = 0, queued tasks = 0, completed tasks = 2]
09-14 17:15:08.620 19337 19352 I Finsky  : [721] com.google.android.finsky.bo.ac.run(5): Stats for Executor: LightweightExecutor com.google.android.finsky.bo.ad@3979290[Running, pool size = 4, active threads = 0, queued tasks = 0, completed tasks = 8]
09-14 17:15:08.815   845   845 I MSM-irqbalance: Decided to move IRQ65 from CPU4 to CPU5
09-14 17:15:10.039  1482  4752 D WifiService: releaseWifiLockLocked: WifiLock{NlpWifiLock type=2 uid=10036}
09-14 17:15:10.041  1482  4833 V OSNPGlue_jni: Entering  : void onJavaLocationChanged(JNIEnv *, jobject, jboolean, jlong, jboolean, jlong, jboolean, jdouble, jboolean, jdouble, jboolean, jfloat, jboolean, jdouble, jboolean, jfloat, jboolean, jfloat, jboolean, jint)
09-14 17:15:10.042  1482  4837 E LocSvc_libulp: E/int ulp_brain_transition_all_providers(), no QUIPC/GNSS transition logic run due to both engines are OFF 
09-14 17:15:10.046  4597  4597 I GeofencerStateMachine: sendNewTransitions called.
09-14 17:15:10.046  1482  3988 E QMI_FW  : QCCI qmi_cci_xport_recv: txn not found. svc_id: 16
09-14 17:15:10.046  1482  3918 E LocSvc_LBSApiV02: E/virtual int lbs_core::LBSApiV02::injectCoarsePosition(const CoarsePositionInfo &):353]: Error : st = 3, ind.status = 0
09-14 17:15:10.055  4597 26939 W ctxmgr  : [AclManager]No 2 for (accnt=account#1844836310#, com.google.android.gms(10036):UserLocationProducer, vrsn=13280000, 0, 3pPkg = null ,  3pMdlId = null ,  pid = 4597). Was: 2 for 1, account#1844836310#
09-14 17:15:10.464  1482  4744 I MotoSensors: Sensorhub hal enable: 1 - 0
09-14 17:15:13.821   845   845 I MSM-irqbalance: Decided to move IRQ203 from CPU4 to CPU5
09-14 17:15:15.488  1482  4749 I MotoSensors: Sensorhub hal setDelay: 1 - 20
09-14 17:15:15.488  1482  4749 I MotoSensors: Sensorhub hal setdelay: 1 - 20
09-14 17:15:15.488  1482  4749 I MotoSensors: HubSensors::updateAccelRate 200
09-14 17:15:15.488  1482  4749 I MotoSensors: Sensorhub hal enable: 1 - 1
09-14 17:15:15.488  1482  4749 I MotoSensors: HubSensors::updateAccelRate 20
09-14 17:15:16.720  5129  5556 W MDM     : StatsFactory - Interface [wlan0] => Type [Wifi]
09-14 17:15:16.720  5129  5556 W MDM     : StatsFactory - Interface [sit0] => Type [Vpn]
09-14 17:15:16.720  5129  5556 W MDM     : StatsFactory - Interface [dummy0] => Type [Mobile]
09-14 17:15:16.720  5129  5556 W MDM     : StatsFactory - Interface [usb0] => Type [Mobile]
09-14 17:15:16.720  5129  5556 W MDM     : StatsFactory - Interface [lo] => Type [LoopBack]
09-14 17:15:16.720  5129  5556 W MDM     : StatsFactory - Interface [p2p0] => Type [WifiLink]
09-14 17:15:16.763  5129  5556 W MDM     : StatsFactory - Interface [wlan0] => Type [Wifi]
09-14 17:15:16.763  5129  5556 W MDM     : StatsFactory - Interface [sit0] => Type [Vpn]
09-14 17:15:16.763  5129  5556 W MDM     : StatsFactory - Interface [dummy0] => Type [Mobile]
09-14 17:15:16.763  5129  5556 W MDM     : StatsFactory - Interface [usb0] => Type [Mobile]
09-14 17:15:16.763  5129  5556 W MDM     : StatsFactory - Interface [lo] => Type [LoopBack]
09-14 17:15:16.763  5129  5556 W MDM     : StatsFactory - Interface [p2p0] => Type [WifiLink]
09-14 17:15:16.799  5129  5556 W MDM     : StatsFactory - Interface [wlan0] => Type [Wifi]
09-14 17:15:16.799  5129  5556 W MDM     : StatsFactory - Interface [sit0] => Type [Vpn]
09-14 17:15:16.799  5129  5556 W MDM     : StatsFactory - Interface [dummy0] => Type [Mobile]
09-14 17:15:16.799  5129  5556 W MDM     : StatsFactory - Interface [usb0] => Type [Mobile]
09-14 17:15:16.799  5129  5556 W MDM     : StatsFactory - Interface [lo] => Type [LoopBack]
09-14 17:15:16.799  5129  5556 W MDM     : StatsFactory - Interface [p2p0] => Type [WifiLink]
09-14 17:15:16.855  5129  5556 W MDM     : StatsFactory - Interface [wlan0] => Type [Wifi]
09-14 17:15:16.855  5129  5556 W MDM     : StatsFactory - Interface [sit0] => Type [Vpn]
09-14 17:15:16.855  5129  5556 W MDM     : StatsFactory - Interface [dummy0] => Type [Mobile]
09-14 17:15:16.855  5129  5556 W MDM     : StatsFactory - Interface [usb0] => Type [Mobile]
09-14 17:15:16.855  5129  5556 W MDM     : StatsFactory - Interface [lo] => Type [LoopBack]
09-14 17:15:16.855  5129  5556 W MDM     : StatsFactory - Interface [p2p0] => Type [WifiLink]
09-14 17:15:18.820   845   845 I MSM-irqbalance: Decided to move IRQ200 from CPU4 to CPU5
09-14 17:15:18.912  1482  4749 I MotoSensors: Sensorhub hal enable: 1 - 0
09-14 17:15:23.832   845   845 I MSM-irqbalance: Decided to move IRQ203 from CPU4 to CPU5
09-14 17:15:23.934  1482  1495 I MotoSensors: Sensorhub hal setDelay: 1 - 20
09-14 17:15:23.934  1482  1495 I MotoSensors: Sensorhub hal setdelay: 1 - 20
09-14 17:15:23.934  1482  1495 I MotoSensors: HubSensors::updateAccelRate 200
09-14 17:15:23.934  1482  1495 I MotoSensors: Sensorhub hal enable: 1 - 1
09-14 17:15:23.934  1482  1495 I MotoSensors: HubSensors::updateAccelRate 20
09-14 17:15:24.707  1482  3692 D BatteryService: uevent={POWER_SUPPLY_TEMP=312, POWER_SUPPLY_STATUS=Full, POWER_SUPPLY_CAPACITY=100, ACTION=change, DEVPATH=/devices/soc.0/qpnp-smbcharger-17/power_supply/battery, POWER_SUPPLY_AGE=101, POWER_SUPPLY_VOLTAGE_MAX=4350, SUBSYSTEM=power_supply, POWER_SUPPLY_NUM_SYSTEM_TEMP_LEVELS=8, POWER_SUPPLY_VOLTAGE_MAX_DESIGN=4350000, POWER_SUPPLY_INPUT_CURRENT_MAX=1500000, POWER_SUPPLY_CHARGE_FULL=3061000, POWER_SUPPLY_NAME=battery, POWER_SUPPLY_FLASH_CURRENT_MAX=2838275, POWER_SUPPLY_HEALTH=Good, POWER_SUPPLY_CYCLE_COUNT=0, POWER_SUPPLY_TECHNOLOGY=Li-ion, POWER_SUPPLY_CHARGE_TYPE=N/A, POWER_SUPPLY_PRESENT=1, POWER_SUPPLY_CONSTANT_CHARGE_CURRENT_MAX=2500000, POWER_SUPPLY_TEMP_HOTSPOT=0, POWER_SUPPLY_INPUT_CURRENT_SETTLED=1, POWER_SUPPLY_SAFETY_TIMER_ENABLED=0, POWER_SUPPLY_FLASH_ACTIVE=0, POWER_SUPPLY_VOLTAGE_NOW=4311650, SEQNUM=5068, POWER_SUPPLY_CHARGE_FULL_DESIGN=3029000, POWER_SUPPLY_CURRENT_NOW=152, POWER_SUPPLY_SYSTEM_TEMP_LEVEL=0, POWER_SUPPLY_CHARGE_COUNTER=3029000, POWER_SUPPLY_CHARGE_RATE=Normal, POWER_SUPPLY_CHARGING_ENABLED=1, POWER_SUPPLY_BATTERY_CHARGING_ENABLED=1}
09-14 17:15:27.372  1482  3703 I MotoSensors: Sensorhub hal enable: 1 - 0
09-14 17:15:28.834   845   845 I MSM-irqbalance: Decided to move IRQ200 from CPU4 to CPU5
09-14 17:15:31.713  5129  5556 W MDM     : StatsFactory - Interface [wlan0] => Type [Wifi]
09-14 17:15:31.713  5129  5556 W MDM     : StatsFactory - Interface [sit0] => Type [Vpn]
09-14 17:15:31.713  5129  5556 W MDM     : StatsFactory - Interface [dummy0] => Type [Mobile]
09-14 17:15:31.713  5129  5556 W MDM     : StatsFactory - Interface [usb0] => Type [Mobile]
09-14 17:15:31.713  5129  5556 W MDM     : StatsFactory - Interface [lo] => Type [LoopBack]
09-14 17:15:31.713  5129  5556 W MDM     : StatsFactory - Interface [p2p0] => Type [WifiLink]
09-14 17:15:31.753  5129  5556 W MDM     : StatsFactory - Interface [wlan0] => Type [Wifi]
09-14 17:15:31.753  5129  5556 W MDM     : StatsFactory - Interface [sit0] => Type [Vpn]
09-14 17:15:31.753  5129  5556 W MDM     : StatsFactory - Interface [dummy0] => Type [Mobile]
09-14 17:15:31.753  5129  5556 W MDM     : StatsFactory - Interface [usb0] => Type [Mobile]
09-14 17:15:31.753  5129  5556 W MDM     : StatsFactory - Interface [lo] => Type [LoopBack]
09-14 17:15:31.753  5129  5556 W MDM     : StatsFactory - Interface [p2p0] => Type [WifiLink]
09-14 17:15:33.833   845   845 I MSM-irqbalance: Decided to move IRQ203 from CPU4 to CPU5
09-14 17:15:36.538  4543  4558 E ANDR-PERF-MPCTL: Invalid profile no. 0, total profiles 0 only
09-14 17:15:36.647  1482  6638 I ActivityManager: START u0 {cmp=com.smartdrive.technician/.activities.AdasCalibrationActivity (has extras)} from uid 10159 on display 0
09-14 17:15:36.652  4543 27512 I Thermal-Lib: Thermal-Lib-Client: Client request sent
09-14 17:15:36.652   574   682 I ThermalEngine: Thermal-Server: Thermal received msg from  override
09-14 17:15:36.652   574   682 E ThermalEngine: override_notify: SS mode 1 override
09-14 17:15:36.663  1482  4744 E ActivityManager: Sending non-protected broadcast com.motorola.motocare.INTENT_TRIGGER from system 3932:com.motorola.process.system/1000 pkg com.motorola.motgeofencesvc
09-14 17:15:36.663  1482  4744 E ActivityManager: java.lang.Throwable
09-14 17:15:36.663  1482  4744 E ActivityManager: 	at com.android.server.am.ActivityManagerService.broadcastIntentLocked(ActivityManagerService.java:18226)
09-14 17:15:36.663  1482  4744 E ActivityManager: 	at com.android.server.am.ActivityManagerService.broadcastIntent(ActivityManagerService.java:18826)
09-14 17:15:36.663  1482  4744 E ActivityManager: 	at android.app.ActivityManagerNative.onTransact(ActivityManagerNative.java:512)
09-14 17:15:36.663  1482  4744 E ActivityManager: 	at com.android.server.am.ActivityManagerService.onTransact(ActivityManagerService.java:2906)
09-14 17:15:36.663  1482  4744 E ActivityManager: 	at android.os.Binder.execTransact(Binder.java:565)
09-14 17:15:36.677  1482  4752 E ActivityManager: Sending non-protected broadcast com.motorola.motocare.INTENT_TRIGGER from system 3932:com.motorola.process.system/1000 pkg com.motorola.motgeofencesvc
09-14 17:15:36.677  1482  4752 E ActivityManager: java.lang.Throwable
09-14 17:15:36.677  1482  4752 E ActivityManager: 	at com.android.server.am.ActivityManagerService.broadcastIntentLocked(ActivityManagerService.java:18226)
09-14 17:15:36.677  1482  4752 E ActivityManager: 	at com.android.server.am.ActivityManagerService.broadcastIntent(ActivityManagerService.java:18826)
09-14 17:15:36.677  1482  4752 E ActivityManager: 	at android.app.ActivityManagerNative.onTransact(ActivityManagerNative.java:512)
09-14 17:15:36.677  1482  4752 E ActivityManager: 	at com.android.server.am.ActivityManagerService.onTransact(ActivityManagerService.java:2906)
09-14 17:15:36.677  1482  4752 E ActivityManager: 	at android.os.Binder.execTransact(Binder.java:565)
09-14 17:15:36.804  1482  1534 I LaunchCheckinHandler: Displayed com.smartdrive.technician/.activities.AdasCalibrationActivity,wp,ca,136
09-14 17:15:36.804  1482  1534 I ActivityManager: Displayed com.smartdrive.technician/.activities.AdasCalibrationActivity: +137ms
09-14 17:15:36.839  1482  4744 I WindowManager: Destroying surface Surface(name=com.smartdrive.technician/com.smartdrive.technician.activities.MainActivity) called by com.android.server.wm.WindowStateAnimator.destroySurface:2069 com.android.server.wm.WindowStateAnimator.destroySurfaceLocked:897 com.android.server.wm.WindowState.destroyOrSaveSurface:2121 com.android.server.wm.WindowManagerService.tryStartExitingAnimation:3085 com.android.server.wm.WindowManagerService.relayoutWindow:2965 com.android.server.wm.Session.relayout:224 android.view.IWindowSession$Stub.onTransact:286 com.android.server.wm.Session.onTransact:145 
09-14 17:15:37.061  1482  3692 D BatteryService: uevent={POWER_SUPPLY_TEMP=312, POWER_SUPPLY_STATUS=Full, POWER_SUPPLY_CAPACITY=100, ACTION=change, DEVPATH=/devices/soc.0/qpnp-smbcharger-17/power_supply/battery, POWER_SUPPLY_AGE=101, POWER_SUPPLY_VOLTAGE_MAX=4350, SUBSYSTEM=power_supply, POWER_SUPPLY_NUM_SYSTEM_TEMP_LEVELS=8, POWER_SUPPLY_VOLTAGE_MAX_DESIGN=4350000, POWER_SUPPLY_INPUT_CURRENT_MAX=600000, POWER_SUPPLY_CHARGE_FULL=3061000, POWER_SUPPLY_NAME=battery, POWER_SUPPLY_FLASH_CURRENT_MAX=2838275, POWER_SUPPLY_HEALTH=Good, POWER_SUPPLY_CYCLE_COUNT=0, POWER_SUPPLY_TECHNOLOGY=Li-ion, POWER_SUPPLY_CHARGE_TYPE=N/A, POWER_SUPPLY_PRESENT=1, POWER_SUPPLY_CONSTANT_CHARGE_CURRENT_MAX=2500000, POWER_SUPPLY_TEMP_HOTSPOT=0, POWER_SUPPLY_INPUT_CURRENT_SETTLED=1, POWER_SUPPLY_SAFETY_TIMER_ENABLED=0, POWER_SUPPLY_FLASH_ACTIVE=0, POWER_SUPPLY_VOLTAGE_NOW=4311650, SEQNUM=5069, POWER_SUPPLY_CHARGE_FULL_DESIGN=3029000, POWER_SUPPLY_CURRENT_NOW=152, POWER_SUPPLY_SYSTEM_TEMP_LEVEL=0, POWER_SUPPLY_CHARGE_COUNTER=3029000, POWER_SUPPLY_CHARGE_RATE=Normal, POWER_SUPPLY_CHARGING_ENABLED=1, POWER_SUPPLY_BATTERY_CHARGING_ENABLED=1}
09-14 17:15:38.838   845   845 I MSM-irqbalance: Decided to move IRQ166 from CPU6 to CPU5
09-14 17:15:38.880 26949 26949 V BleController: SendRawSegment(InitiateBluetoothFileSharing): 33 00 00 33 
09-14 17:15:38.975 26949 27081 V BleController: onCharacteristicWrite(447c0021-ed49-fe29-71e1-87a4e15ecff6, 0)
09-14 17:15:39.312 26949 27081 V BleController: onCharacteristicChanged(447c0020-ed49-fe29-71e1-87a4e15ecff6): 33 00 90 34 30 3A 39 46 3A 33 38 3A 30 43 3A 38 36 3A 44 58 
09-14 17:15:39.315 26949 27081 V BleController: onCharacteristicChanged(447c0020-ed49-fe29-71e1-87a4e15ecff6): 33 01 90 36 2F 30 30 30 30 31 31 30 31 2D 30 30 30 30 2D C6 
09-14 17:15:39.316 26949 27081 V BleController: onCharacteristicChanged(447c0020-ed49-fe29-71e1-87a4e15ecff6): 33 02 90 31 30 30 30 2D 38 30 30 30 2D 30 30 38 30 35 66 0B 
09-14 17:15:39.317 26949 27081 V BleController: onCharacteristicChanged(447c0020-ed49-fe29-71e1-87a4e15ecff6): 33 03 06 39 62 33 34 66 62 06 
09-14 17:15:39.319 26949 27081 V BleController: SendAckOrErrorSegment(InitiateBluetoothFileSharing): 25 00 04 33 00 03 00 5F 
09-14 17:15:39.447 26949 26962 V BleController: onCharacteristicWrite(447c0021-ed49-fe29-71e1-87a4e15ecff6, 0)
09-14 17:15:39.451  4443  4853 E bt_btif : bte_scan_filt_param_cfg_evt, 23
09-14 17:15:39.451 26949 27520 W BluetoothAdapter: getBluetoothService() called with no BluetoothManagerCallback
09-14 17:15:39.453  4443  4853 W bt_l2cap: L2CA_ErtmConnectReq()  PSM: 0x0001  BDA: 409f380c86d6  p_ertm_info: 0x00000000 allowed:0x0 preferred:0
09-14 17:15:39.654  4543 27521 I Thermal-Lib: Thermal-Lib-Client: Client request sent
09-14 17:15:39.654   574   682 I ThermalEngine: Thermal-Server: Thermal received msg from  override
09-14 17:15:39.654   574   682 E ThermalEngine: override_notify: SS mode 0 override
09-14 17:15:39.861  4443  4853 W bt_btm  : btm_acl_role_changed: BDA: 40-9f-38-0c-86-d6
09-14 17:15:39.861  4443  4853 W bt_btm  : btm_acl_role_changed: New role: 1
09-14 17:15:39.878  4443  4853 W bt_btm  : btm_acl_created hci_handle=1 link_role=1  transport=1
09-14 17:15:39.878  4443  4853 W bt_btm  : btm_acl_created hci_handle=1 link_role=1  transport=1
09-14 17:15:39.879  4443  4853 W bt_l2cap: L2CAP - st: CLOSED evt: 0
09-14 17:15:39.879  4443  4853 W bt_l2cap: L2CAP - st: ORIG_W4_SEC_COMP evt: 7
09-14 17:15:39.879  4443  4853 E bt_btif : bta_dm_acl_change new acl connetion:count = 2
09-14 17:15:39.879  4443  4853 W bt_btif : bta_dm_acl_change info: 0x10
09-14 17:15:39.879  4443  4853 W bt_l2cap: L2CA_SetDesireRole() new:x0, disallow_switch:0
09-14 17:15:39.879  4443  4550 D bt_btif_dm: remote version info [40:9f:38:0c:86:d6]: 0, 0, 0
09-14 17:15:39.899  4443  4853 W bt_btm  : btm_read_remote_version_complete: BDA: 40-9f-38-0c-86-d6
09-14 17:15:39.899  4443  4853 W bt_btm  : btm_read_remote_version_complete lmp_version 6 manufacturer 93 lmp_subversion 40819
09-14 17:15:39.976  4443  4550 E BluetoothRemoteDevices: state12newState0
09-14 17:15:40.010  4443  4853 W bt_l2cap: L2CAP - st: W4_L2CAP_CON_RSP evt: 19
09-14 17:15:40.012  4929  4929 W SearchServiceCore: Abort, client detached.
09-14 17:15:40.020  4929  4929 I DeviceDetector: UUID = 00001101-0000-1000-8000-00805f9b34fb
09-14 17:15:40.022  4929  4929 I DeviceDetector: UUID = 0000110e-0000-1000-8000-00805f9b34fb
09-14 17:15:40.023  4929  4929 I DeviceDetector: UUID = 00000000-0000-1000-8000-00805f9b34fb
09-14 17:15:40.050  4443  4853 W bt_l2cap: L2CAP - st: W4_L2CAP_CON_RSP evt: 11
09-14 17:15:40.050  4443  4853 W bt_l2cap: L2CAP - st: CONFIG evt: 24
09-14 17:15:40.055  4443  4853 W bt_l2cap: L2CAP - st: CONFIG evt: 14
09-14 17:15:40.055  4443  4853 W bt_l2cap: L2CAP - st: CONFIG evt: 25
09-14 17:15:40.055  4443  4853 W bt_l2cap: L2CAP-Upper layer Config_Rsp,Local CID: 0x0041,Remote CID: 0x0040,PSM: 1,our MTU present:1,our MTU:672
09-14 17:15:40.059  4443  4853 W bt_l2cap: L2CAP - st: CONFIG evt: 15
09-14 17:15:40.059  4443  4853 W bt_l2cap: L2CAP-peer_Config_Rsp,Local CID: 0x0041,Remote CID: 0x0040,PSM: 1,peer MTU present: 0,peer MTU: 672
09-14 17:15:40.071  4443  4853 W bt_sdp  : process_service_search_attr_rsp
09-14 17:15:40.072  4443  4853 W bt_l2cap: L2CA_DisconnectReq()  CID: 0x0041
09-14 17:15:40.076  4443  4853 W bt_l2cap: L2CAP - st: W4_L2CAP_DISC_RSP evt: 18
09-14 17:15:40.077  4443  4853 W bt_l2cap: L2CA_ErtmConnectReq()  PSM: 0x0003  BDA: 409f380c86d6  p_ertm_info: 0x00000000 allowed:0x0 preferred:0
09-14 17:15:40.077  4443  4853 W bt_l2cap: L2CAP - st: CLOSED evt: 21
09-14 17:15:40.192  4443  4853 W bt_l2cap: L2CAP - st: ORIG_W4_SEC_COMP evt: 7
09-14 17:15:40.198  4443  4853 W bt_l2cap: L2CAP - st: W4_L2CAP_CON_RSP evt: 13
09-14 17:15:40.198  4443  4853 W bt_rfcomm: PORT_StartCnf failed result:3
09-14 17:15:40.198  4443  4905 E bt_btif_sock_rfcomm: find_rfc_slot_by_id unable to find RFCOMM slot id: 13
09-14 17:15:40.199 26949 27520 W System.err: java.io.IOException: read failed, socket might closed or timeout, read ret: -1
09-14 17:15:40.199 26949 27520 W System.err: 	at android.bluetooth.BluetoothSocket.readAll(BluetoothSocket.java:741)
09-14 17:15:40.199 26949 27520 W System.err: 	at android.bluetooth.BluetoothSocket.waitSocketSignal(BluetoothSocket.java:700)
09-14 17:15:40.199 26949 27520 W System.err: 	at android.bluetooth.BluetoothSocket.connect(BluetoothSocket.java:379)
09-14 17:15:40.199 26949 27520 W System.err: 	at com.smartdrive.technician.controller.BluetoothClassicController$BluetoothSocketThread.run(BluetoothClassicController.java:155)
09-14 17:15:40.251   553   733 I SFPerfTracer:      triggers: (rate: 0:0) (0 sw vsyncs) (0 skipped) (78:759315 vsyncs) (80:764183)
09-14 17:15:40.253   553   553 I SFPerfTracer:      triggers: (rate: 21:397) (compose: 0:233) (post: 0:0) (render: 0:220) (79:760744 frames) (80:763904)
09-14 17:15:40.253   553   553 D SFPerfTracer:        layers: (3:9) (StatusBar (0xb32c4c00): 0:7663) (com.android.systemui.ImageWallpaper (0xb32c3800): 0:3866)* (NavigationBar (0xb2f0d000): 0:3990) (DimLayerController/Stack=0 (0xb2f0f800): 0:1097)* (Sprite (0xb32c1000): 0:3)* (animation background stackId=1 (0xb32d6000): 0:10)* (com.smartdrive.technician/com.smartdrive.technician.activities.AdasCalibrationActivity (0xb2f0bc00): 0:8806)- (com.smartdrive.technician/com.smartdrive.technician.activities.MainActivity (0xb2f0e400): 0:34)- (com.smartdrive.technician/com.smartdrive.technician.activities.AdasCalibrationActivity (0xb2f0bc00): 80:105) 
09-14 17:15:44.193  4443  4853 I bt_btm_sec: btm_sec_disconnected clearing pending flag handle:1 reason:5
09-14 17:15:44.194  4443  4853 W bt_l2cap: L2CA_SetDesireRole() new:x0, disallow_switch:0
09-14 17:15:44.200  4443  4550 E BluetoothRemoteDevices: state12newState1
09-14 17:15:44.204  4443  4443 D BluetoothMapService: onReceive
09-14 17:15:44.205  4443  4443 D BluetoothMapService: onReceive: android.bluetooth.device.action.ACL_DISCONNECTED
09-14 17:15:44.205  4443  4443 E BluetoothMapService: Unexpected error!
09-14 17:15:44.205  4443  4443 I BluetoothPbapReceiver: Enter - onReceive for intent:android.bluetooth.device.action.ACL_DISCONNECTED
09-14 17:15:44.213  4443  4443 I BluetoothPbapReceiver: Exit - onReceive for intent:android.bluetooth.device.action.ACL_DISCONNECTED
09-14 17:15:44.214  4443  4443 D BluetoothPbapService: Enter - onStartCommand for service PBAP
09-14 17:15:44.214  4443  4443 D BluetoothPbapService: action: android.bluetooth.device.action.ACL_DISCONNECTED
09-14 17:15:44.214  4443  4443 D BluetoothPbapService: Exit - onStartCommand for service PBAP
09-14 17:15:44.251  4929  4929 W SearchServiceCore: Abort, client detached.
09-14 17:15:44.256  4929  4929 I DeviceDetector: UUID = 00001101-0000-1000-8000-00805f9b34fb
09-14 17:15:44.258  4929  4929 I DeviceDetector: UUID = 0000110e-0000-1000-8000-00805f9b34fb
09-14 17:15:44.260  4929  4929 I DeviceDetector: UUID = 00000000-0000-1000-8000-00805f9b34fb
09-14 17:15:45.283   553   553 I SFPerfTracer:      triggers: (rate: 21:397) (compose: 0:233) (post: 0:0) (render: 0:220) (298:761044 frames) (299:764209)
09-14 17:15:45.283   553   553 D SFPerfTracer:        layers: (5:8) (StatusBar (0xb32c4c00): 14:7683) (com.android.systemui.ImageWallpaper (0xb32c3800): 14:3886)* (NavigationBar (0xb2f0d000): 14:4010) (DimLayerController/Stack=0 (0xb2f0f800): 12:1110) (Sprite (0xb32c1000): 0:3)* (animation background stackId=1 (0xb32d6000): 0:10)* (com.smartdrive.technician/com.smartdrive.technician.activities.AdasCalibrationActivity (0xb2f0bc00): 299:410) (com.smartdrive.technician/com.smartdrive.technician.activities.AdasCalibrationActivity (0xb2f0e400): 14:20) 
09-14 17:15:45.329  1482  1534 I WindowManager: Destroying surface Surface(name=com.smartdrive.technician/com.smartdrive.technician.activities.AdasCalibrationActivity) called by com.android.server.wm.WindowStateAnimator.destroySurface:2069 com.android.server.wm.WindowStateAnimator.destroySurfaceLocked:897 com.android.server.wm.WindowState.destroyOrSaveSurface:2121 com.android.server.wm.AppWindowToken.destroySurfaces:363 com.android.server.wm.WindowStateAnimator.finishExit:575 com.android.server.wm.WindowStateAnimator.stepAnimationLocked:501 com.android.server.wm.WindowAnimator.updateWindowsLocked:303 com.android.server.wm.WindowAnimator.animateLocked:704 
09-14 17:15:46.558  1482  4744 D BatteryService: mLastPlugType/mPlugType:1/1
09-14 17:15:46.559  1482  4744 D BatteryService: set mLastPlugType to 1
09-14 17:15:46.561  3749  3749 D KeyguardUpdateMonitor: received broadcast android.intent.action.BATTERY_CHANGED
09-14 17:15:46.562  4626  4732 W QCNEJ   : |CORE| CNE received unexpected action: android.intent.action.BATTERY_CHANGED
09-14 17:15:46.562  4443  4924 D HeadsetStateMachine: Disconnected process message: 10, size: 0
09-14 17:15:46.562  4443  4924 D HeadsetStateMachine: Enter processIntentBatteryChanged()
09-14 17:15:46.562  4443  4924 D HeadsetStateMachine: Exit processIntentBatteryChanged()
09-14 17:15:46.562  4443  4924 D HeadsetStateMachine: Exit Disconnected processMessage() 
09-14 17:15:46.563  4006  4006 D VideoCall_LowBattery: BatteryIntent received: android.intent.action.BATTERY_CHANGED
09-14 17:15:46.567  3749  3749 D KeyguardUpdateMonitor: handleBatteryUpdate
09-14 17:15:46.569  4006  4006 E QtiImsExtUtils: getConfigForPhoneId subId is invalid
09-14 17:15:46.569  4006  4006 E QtiImsExtUtils: isCarrierConfigEnabled bundle is null
09-14 17:15:46.569  4006  4006 D VideoCall_LowBattery:  allowVideoCallsInLowBattery: false isCarrierOneSupported: false mIsLowbattery: false
09-14 17:15:46.721  5129  5556 W MDM     : StatsFactory - Interface [wlan0] => Type [Wifi]
09-14 17:15:46.722  5129  5556 W MDM     : StatsFactory - Interface [sit0] => Type [Vpn]
09-14 17:15:46.722  5129  5556 W MDM     : StatsFactory - Interface [dummy0] => Type [Mobile]
09-14 17:15:46.722  5129  5556 W MDM     : StatsFactory - Interface [usb0] => Type [Mobile]
09-14 17:15:46.722  5129  5556 W MDM     : StatsFactory - Interface [lo] => Type [LoopBack]
09-14 17:15:46.722  5129  5556 W MDM     : StatsFactory - Interface [p2p0] => Type [WifiLink]
09-14 17:15:46.768  5129  5556 W MDM     : StatsFactory - Interface [wlan0] => Type [Wifi]
09-14 17:15:46.769  5129  5556 W MDM     : StatsFactory - Interface [sit0] => Type [Vpn]
09-14 17:15:46.769  5129  5556 W MDM     : StatsFactory - Interface [dummy0] => Type [Mobile]
09-14 17:15:46.769  5129  5556 W MDM     : StatsFactory - Interface [usb0] => Type [Mobile]
09-14 17:15:46.769  5129  5556 W MDM     : StatsFactory - Interface [lo] => Type [LoopBack]
09-14 17:15:46.769  5129  5556 W MDM     : StatsFactory - Interface [p2p0] => Type [WifiLink]
