Screen,Type,Label,Identifier
1,Digital,Camera 1,2
1,Digital,Camera 2,3
3,Digital,Camera 3,4
1,Digital,Camera 4,5
2,WABCO,WABCO OnLane 2 Camera 1,1
2,Analog,Analog Camera 1,6
2,Analog,Analog Camera 2,7
2,Analog,Analog Camera 3,8
2,Analog,Analog Camera 4,9